%!PS-Adobe-3.0 EPSF-3.0
%%Title: grover.eps
%%Creator: matplotlib version 3.1.0, http://matplotlib.org/
%%CreationDate: Fri Dec 13 20:19:32 2019
%%Orientation: portrait
%%BoundingBox: 49.85838000000021 322.57140000000004 562.1416199999998 469.4286
%%EndComments
%%BeginProlog
/mpldict 9 dict def
mpldict begin
/m { moveto } bind def
/l { lineto } bind def
/r { rlineto } bind def
/c { curveto } bind def
/cl { closepath } bind def
/box {
m
1 index 0 r
0 exch r
neg 0 r
cl
} bind def
/clipbox {
box
clip
newpath
} bind def
%!PS-Adobe-3.0 Resource-Font
%%Title: DejaVu Sans Oblique
%%Copyright: Copyright (c) 2003 by Bitstream, Inc. All Rights Reserved. Copyright (c) 2006 by Tavmjong Bah. All Rights Reserved. DejaVu changes are in public domain 
%%Creator: Converted from TrueType to type 3 by PPR
25 dict begin
/_d{bind def}bind def
/_m{moveto}_d
/_l{lineto}_d
/_cl{closepath eofill}_d
/_c{curveto}_d
/_sc{7 -1 roll{setcachedevice}{pop pop pop pop pop pop}ifelse}_d
/_e{exec}_d
/FontName /DejaVuSans-Oblique def
/PaintType 0 def
/FontMatrix[.001 0 0 .001 0 0]def
/FontBBox[-1016 -350 1659 1068]def
/FontType 3 def
/Encoding [ /H /X /Z /c /q ] def
/FontInfo 10 dict dup begin
/FamilyName (DejaVu Sans) def
/FullName (DejaVu Sans Oblique) def
/Notice (Copyright (c) 2003 by Bitstream, Inc. All Rights Reserved. Copyright (c) 2006 by Tavmjong Bah. All Rights Reserved. DejaVu changes are in public domain ) def
/Weight (Oblique) def
/Version (Version 2.35) def
/ItalicAngle -11.0 def
/isFixedPitch false def
/UnderlinePosition -130 def
/UnderlineThickness 90 def
end readonly def
/CharStrings 6 dict dup begin
/.notdef 0 def
/H{752 0 27 0 725 729 _sc
169 729 _m
268 729 _l
210 430 _l
568 430 _l
626 729 _l
725 729 _l
583 0 _l
484 0 _l
552 347 _l
194 347 _l
126 0 _l
27 0 _l
169 729 _l
_cl}_d
/X{685 0 -42 0 703 729 _sc
137 729 _m
237 729 _l
362 466 _l
588 729 _l
703 729 _l
403 381 _l
584 0 _l
485 0 _l
338 307 _l
72 0 _l
-42 0 _l
298 392 _l
137 729 _l
_cl}_d
/Z{685 0 -21 0 703 729 _sc
131 729 _m
703 729 _l
689 654 _l
124 83 _l
589 83 _l
573 0 _l
-21 0 _l
-7 75 _l
557 646 _l
115 646 _l
131 729 _l
_cl}_d
/c{{550 0 46 -13 536 560 _sc
536 526 _m
518 437 _l
496 452 473 464 449 472 _c
425 480 400 484 374 484 _c
345 484 318 479 292 469 _c
266 459 244 444 227 426 _c
199 397 177 364 162 326 _c
146 288 139 248 139 208 _c
139 158 151 122 176 98 _c
200 74 238 62 288 62 _c
312 62 339 65 367 73 _c
395 80 424 91 454 107 _c
437 18 _l
411 7 384 0 356 -5 _c
}_e{328 -10 300 -13 272 -13 _c
199 -13 143 5 104 41 _c
65 77 46 128 46 196 _c
46 252 56 304 76 352 _c
96 400 127 443 167 481 _c
194 507 226 526 263 540 _c
299 553 340 560 384 560 _c
409 560 434 557 459 551 _c
484 545 510 537 536 526 _c
_cl}_e}_d
/q{{635 0 46 -205 597 560 _sc
417 82 _m
393 50 364 27 332 11 _c
299 -5 263 -13 223 -13 _c
167 -13 124 5 93 42 _c
61 79 46 130 46 196 _c
46 248 55 299 75 348 _c
94 397 122 441 158 481 _c
181 506 208 525 239 539 _c
269 553 301 560 335 560 _c
375 560 409 552 435 536 _c
461 520 479 496 491 464 _c
507 546 _l
597 546 _l
451 -205 _l
361 -205 _l
417 82 _l
139 209 _m
}_e{139 161 149 124 169 99 _c
189 73 219 61 257 61 _c
313 61 362 88 402 142 _c
442 196 462 262 462 340 _c
462 386 451 422 431 447 _c
410 472 380 485 342 485 _c
313 485 287 478 263 465 _c
239 451 218 432 200 407 _c
181 380 166 349 155 313 _c
144 277 139 243 139 209 _c
_cl}_e}_d
end readonly def

/BuildGlyph
 {exch begin
 CharStrings exch
 2 copy known not{pop /.notdef}if
 true 3 1 roll get exec
 end}_d

/BuildChar {
 1 index /Encoding get exch get
 1 index /BuildGlyph get exec
}_d

FontName currentdict end definefont pop
%!PS-Adobe-3.0 Resource-Font
%%Title: DejaVu Sans
%%Copyright: Copyright (c) 2003 by Bitstream, Inc. All Rights Reserved. Copyright (c) 2006 by Tavmjong Bah. All Rights Reserved. DejaVu changes are in public domain 
%%Creator: Converted from TrueType to type 3 by PPR
25 dict begin
/_d{bind def}bind def
/_m{moveto}_d
/_l{lineto}_d
/_cl{closepath eofill}_d
/_c{curveto}_d
/_sc{7 -1 roll{setcachedevice}{pop pop pop pop pop pop}ifelse}_d
/_e{exec}_d
/FontName /DejaVuSans def
/PaintType 0 def
/FontMatrix[.001 0 0 .001 0 0]def
/FontBBox[-1021 -463 1793 1232]def
/FontType 3 def
/Encoding [ /zero /one /two ] def
/FontInfo 10 dict dup begin
/FamilyName (DejaVu Sans) def
/FullName (DejaVu Sans) def
/Notice (Copyright (c) 2003 by Bitstream, Inc. All Rights Reserved. Copyright (c) 2006 by Tavmjong Bah. All Rights Reserved. DejaVu changes are in public domain ) def
/Weight (Book) def
/Version (Version 2.35) def
/ItalicAngle 0.0 def
/isFixedPitch false def
/UnderlinePosition -130 def
/UnderlineThickness 90 def
end readonly def
/CharStrings 4 dict dup begin
/.notdef 0 def
/zero{636 0 66 -13 570 742 _sc
318 664 _m
267 664 229 639 203 589 _c
177 539 165 464 165 364 _c
165 264 177 189 203 139 _c
229 89 267 64 318 64 _c
369 64 407 89 433 139 _c
458 189 471 264 471 364 _c
471 464 458 539 433 589 _c
407 639 369 664 318 664 _c
318 742 _m
399 742 461 709 505 645 _c
548 580 570 486 570 364 _c
570 241 548 147 505 83 _c
461 19 399 -13 318 -13 _c
236 -13 173 19 130 83 _c
87 147 66 241 66 364 _c
66 486 87 580 130 645 _c
173 709 236 742 318 742 _c
_cl}_d
/one{636 0 110 0 544 729 _sc
124 83 _m
285 83 _l
285 639 _l
110 604 _l
110 694 _l
284 729 _l
383 729 _l
383 83 _l
544 83 _l
544 0 _l
124 0 _l
124 83 _l
_cl}_d
/two{{636 0 73 0 536 742 _sc
192 83 _m
536 83 _l
536 0 _l
73 0 _l
73 83 _l
110 121 161 173 226 239 _c
290 304 331 346 348 365 _c
380 400 402 430 414 455 _c
426 479 433 504 433 528 _c
433 566 419 598 392 622 _c
365 646 330 659 286 659 _c
255 659 222 653 188 643 _c
154 632 117 616 78 594 _c
78 694 _l
118 710 155 722 189 730 _c
223 738 255 742 284 742 _c
}_e{359 742 419 723 464 685 _c
509 647 532 597 532 534 _c
532 504 526 475 515 449 _c
504 422 484 390 454 354 _c
446 344 420 317 376 272 _c
332 227 271 164 192 83 _c
_cl}_e}_d
end readonly def

/BuildGlyph
 {exch begin
 CharStrings exch
 2 copy known not{pop /.notdef}if
 true 3 1 roll get exec
 end}_d

/BuildChar {
 1 index /Encoding get exch get
 1 index /BuildGlyph get exec
}_d

FontName currentdict end definefont pop
end
%%EndProlog
mpldict begin
49.858 322.571 translate
512.283 146.857 0 0 clipbox
gsave
0 0 m
512.28324 0 l
512.28324 146.8572 l
0 146.8572 l
cl
1.000 setgray
fill
grestore
gsave
497.9 132.5 7.2 7.2 clipbox
418.2069 39.437745 m
428.33598 39.437745 l
423.27144 30.5748 l
cl
0.467 0.533 0.600 setrgbcolor
fill
grestore
gsave
497.9 132.5 7.2 7.2 clipbox
457.1649 39.437745 m
467.29398 39.437745 l
462.22944 30.5748 l
cl
0.467 0.533 0.600 setrgbcolor
fill
grestore
2.000 setlinewidth
1 setlinejoin
2 setlinecap
[] 0 setdash
0.000 setgray
gsave
497.9 132.5 7.2 7.2 clipbox
92.12844 108.4908 m
501.18744 108.4908 l
stroke
grestore
gsave
497.9 132.5 7.2 7.2 clipbox
92.12844 69.5328 m
501.18744 69.5328 l
stroke
grestore
0.467 0.533 0.600 setrgbcolor
gsave
497.9 132.5 7.2 7.2 clipbox
92.12844 31.840935 m
501.18744 31.840935 l
stroke
grestore
gsave
497.9 132.5 7.2 7.2 clipbox
92.12844 29.308665 m
501.18744 29.308665 l
stroke
grestore
0.733 0.545 1.000 setrgbcolor
gsave
497.9 132.5 7.2 7.2 clipbox
189.52344 69.5328 m
189.52344 108.4908 l
stroke
grestore
gsave
497.9 132.5 7.2 7.2 clipbox
345.35544 69.5328 m
345.35544 108.4908 l
stroke
grestore
0.467 0.533 0.600 setrgbcolor
gsave
497.9 132.5 7.2 7.2 clipbox
424.537575 108.4908 m
424.537575 39.437745 l
stroke
grestore
gsave
497.9 132.5 7.2 7.2 clipbox
422.005305 108.4908 m
422.005305 39.437745 l
stroke
grestore
gsave
497.9 132.5 7.2 7.2 clipbox
463.495575 69.5328 m
463.495575 39.437745 l
stroke
grestore
gsave
497.9 132.5 7.2 7.2 clipbox
460.963305 69.5328 m
460.963305 39.437745 l
stroke
grestore
1.500 setlinewidth
gsave
497.9 132.5 7.2 7.2 clipbox
108.4908 26.679 m
112.3866 34.4706 l
stroke
grestore
gsave
497.9 132.5 7.2 7.2 clipbox
98.94609 95.82945 m
124.26879 95.82945 l
124.26879 121.15215 l
98.94609 121.15215 l
cl
0.435 0.643 1.000 setrgbcolor
fill
grestore
gsave
497.9 132.5 7.2 7.2 clipbox
98.94609 56.87145 m
124.26879 56.87145 l
124.26879 82.19415 l
98.94609 82.19415 l
cl
0.435 0.643 1.000 setrgbcolor
fill
grestore
gsave
497.9 132.5 7.2 7.2 clipbox
137.90409 95.82945 m
163.22679 95.82945 l
163.22679 121.15215 l
137.90409 121.15215 l
cl
0.020 0.729 0.714 setrgbcolor
fill
grestore
gsave
497.9 132.5 7.2 7.2 clipbox
137.90409 56.87145 m
163.22679 56.87145 l
163.22679 82.19415 l
137.90409 82.19415 l
cl
0.020 0.729 0.714 setrgbcolor
fill
grestore
0 setlinejoin
0 setlinecap
[] 0 setdash
0.733 0.545 1.000 setrgbcolor
gsave
497.9 132.5 7.2 7.2 clipbox
189.52344 104.692395 m
190.530789 104.692395 191.497015 105.092619 192.209318 105.804922 c
192.921621 106.517225 193.321845 107.483451 193.321845 108.4908 c
193.321845 109.498149 192.921621 110.464375 192.209318 111.176678 c
191.497015 111.888981 190.530789 112.289205 189.52344 112.289205 c
188.516091 112.289205 187.549865 111.888981 186.837562 111.176678 c
186.125259 110.464375 185.725035 109.498149 185.725035 108.4908 c
185.725035 107.483451 186.125259 106.517225 186.837562 105.804922 c
187.549865 105.092619 188.516091 104.692395 189.52344 104.692395 c
cl
gsave
fill
grestore
stroke
grestore
gsave
497.9 132.5 7.2 7.2 clipbox
176.86209 56.87145 m
202.18479 56.87145 l
202.18479 82.19415 l
176.86209 82.19415 l
cl
fill
grestore
gsave
497.9 132.5 7.2 7.2 clipbox
215.82009 95.82945 m
241.14279 95.82945 l
241.14279 121.15215 l
215.82009 121.15215 l
cl
0.020 0.729 0.714 setrgbcolor
fill
grestore
gsave
497.9 132.5 7.2 7.2 clipbox
215.82009 56.87145 m
241.14279 56.87145 l
241.14279 82.19415 l
215.82009 82.19415 l
cl
0.020 0.729 0.714 setrgbcolor
fill
grestore
gsave
497.9 132.5 7.2 7.2 clipbox
254.77809 95.82945 m
280.10079 95.82945 l
280.10079 121.15215 l
254.77809 121.15215 l
cl
0.435 0.643 1.000 setrgbcolor
fill
grestore
gsave
497.9 132.5 7.2 7.2 clipbox
254.77809 56.87145 m
280.10079 56.87145 l
280.10079 82.19415 l
254.77809 82.19415 l
cl
0.435 0.643 1.000 setrgbcolor
fill
grestore
gsave
497.9 132.5 7.2 7.2 clipbox
293.73609 95.82945 m
319.05879 95.82945 l
319.05879 121.15215 l
293.73609 121.15215 l
cl
0.020 0.729 0.714 setrgbcolor
fill
grestore
gsave
497.9 132.5 7.2 7.2 clipbox
293.73609 56.87145 m
319.05879 56.87145 l
319.05879 82.19415 l
293.73609 82.19415 l
cl
0.020 0.729 0.714 setrgbcolor
fill
grestore
gsave
497.9 132.5 7.2 7.2 clipbox
345.35544 104.692395 m
346.362789 104.692395 347.329015 105.092619 348.041318 105.804922 c
348.753621 106.517225 349.153845 107.483451 349.153845 108.4908 c
349.153845 109.498149 348.753621 110.464375 348.041318 111.176678 c
347.329015 111.888981 346.362789 112.289205 345.35544 112.289205 c
344.348091 112.289205 343.381865 111.888981 342.669562 111.176678 c
341.957259 110.464375 341.557035 109.498149 341.557035 108.4908 c
341.557035 107.483451 341.957259 106.517225 342.669562 105.804922 c
343.381865 105.092619 344.348091 104.692395 345.35544 104.692395 c
cl
gsave
fill
grestore
stroke
grestore
gsave
497.9 132.5 7.2 7.2 clipbox
332.69409 56.87145 m
358.01679 56.87145 l
358.01679 82.19415 l
332.69409 82.19415 l
cl
fill
grestore
gsave
497.9 132.5 7.2 7.2 clipbox
371.65209 95.82945 m
396.97479 95.82945 l
396.97479 121.15215 l
371.65209 121.15215 l
cl
0.435 0.643 1.000 setrgbcolor
fill
grestore
gsave
497.9 132.5 7.2 7.2 clipbox
371.65209 56.87145 m
396.97479 56.87145 l
396.97479 82.19415 l
371.65209 82.19415 l
cl
0.435 0.643 1.000 setrgbcolor
fill
grestore
gsave
497.9 132.5 7.2 7.2 clipbox
410.61009 95.82945 m
435.93279 95.82945 l
435.93279 121.15215 l
410.61009 121.15215 l
cl
0.000 setgray
fill
grestore
2.000 setlinewidth
1.000 setgray
gsave
497.9 132.5 7.2 7.2 clipbox
432.134385 104.692395 m
432.134385 107.042093 431.199976 109.297956 429.538489 110.959444 c
427.877001 112.620931 425.621138 113.55534 423.27144 113.55534 c
420.921742 113.55534 418.665879 112.620931 417.004391 110.959444 c
415.342904 109.297956 414.408495 107.042093 414.408495 104.692395 c
stroke
grestore
gsave
497.9 132.5 7.2 7.2 clipbox
449.56809 56.87145 m
474.89079 56.87145 l
474.89079 82.19415 l
449.56809 82.19415 l
cl
0.000 setgray
fill
grestore
gsave
497.9 132.5 7.2 7.2 clipbox
471.092385 65.734395 m
471.092385 68.084093 470.157976 70.339956 468.496489 72.001444 c
466.835001 73.662931 464.579138 74.59734 462.22944 74.59734 c
459.879742 74.59734 457.623879 73.662931 455.962391 72.001444 c
454.300904 70.339956 453.366495 68.084093 453.366495 65.734395 c
stroke
grestore
1 setlinejoin
2 setlinecap
[] 0 setdash
gsave
497.9 132.5 7.2 7.2 clipbox
423.27144 104.692395 m
432.134385 113.55534 l
stroke
grestore
gsave
497.9 132.5 7.2 7.2 clipbox
462.22944 65.734395 m
471.092385 74.59734 l
stroke
grestore
0.000 setgray
gsave
106.607440 104.904862 translate
0.000000 rotate
/DejaVuSans-Oblique findfont
13.0 scalefont
setfont
0.000000 0.515625 moveto
/H glyphshow


grestore
gsave
106.607440 65.946863 translate
0.000000 rotate
/DejaVuSans-Oblique findfont
13.0 scalefont
setfont
0.000000 0.515625 moveto
/H glyphshow


grestore
gsave
146.065440 104.904862 translate
0.000000 rotate
/DejaVuSans-Oblique findfont
13.0 scalefont
setfont
0.000000 0.515625 moveto
/X glyphshow


grestore
gsave
146.065440 65.946863 translate
0.000000 rotate
/DejaVuSans-Oblique findfont
13.0 scalefont
setfont
0.000000 0.515625 moveto
/X glyphshow


grestore
gsave
185.023440 65.946863 translate
0.000000 rotate
/DejaVuSans-Oblique findfont
13.0 scalefont
setfont
0.000000 0.515625 moveto
/Z glyphshow


grestore
gsave
223.981440 104.904862 translate
0.000000 rotate
/DejaVuSans-Oblique findfont
13.0 scalefont
setfont
0.000000 0.515625 moveto
/X glyphshow


grestore
gsave
223.981440 65.946863 translate
0.000000 rotate
/DejaVuSans-Oblique findfont
13.0 scalefont
setfont
0.000000 0.515625 moveto
/X glyphshow


grestore
gsave
262.439440 104.904862 translate
0.000000 rotate
/DejaVuSans-Oblique findfont
13.0 scalefont
setfont
0.000000 0.515625 moveto
/H glyphshow


grestore
gsave
262.439440 65.946863 translate
0.000000 rotate
/DejaVuSans-Oblique findfont
13.0 scalefont
setfont
0.000000 0.515625 moveto
/H glyphshow


grestore
gsave
301.897440 104.904862 translate
0.000000 rotate
/DejaVuSans-Oblique findfont
13.0 scalefont
setfont
0.000000 0.515625 moveto
/Z glyphshow


grestore
gsave
301.897440 65.946863 translate
0.000000 rotate
/DejaVuSans-Oblique findfont
13.0 scalefont
setfont
0.000000 0.515625 moveto
/Z glyphshow


grestore
gsave
340.855440 65.946863 translate
0.000000 rotate
/DejaVuSans-Oblique findfont
13.0 scalefont
setfont
0.000000 0.515625 moveto
/Z glyphshow


grestore
gsave
379.313440 104.904862 translate
0.000000 rotate
/DejaVuSans-Oblique findfont
13.0 scalefont
setfont
0.000000 0.515625 moveto
/H glyphshow


grestore
gsave
379.313440 65.946863 translate
0.000000 rotate
/DejaVuSans-Oblique findfont
13.0 scalefont
setfont
0.000000 0.515625 moveto
/H glyphshow


grestore
/DejaVuSans findfont
10.400 scalefont
setfont
gsave
433.010940 36.626850 translate
0.000000 rotate
0.000000 0.000000 m /zero glyphshow
grestore
gsave
471.968940 36.626850 translate
0.000000 rotate
0.000000 0.000000 m /one glyphshow
grestore
gsave
43.649440 103.990800 translate
0.000000 rotate
/DejaVuSans-Oblique findfont
16.25 scalefont
setfont
0.000000 0.937500 moveto
/q glyphshow

/DejaVuSans findfont
16.25 scalefont
setfont
10.314941 0.937500 moveto
/zero glyphshow

/DejaVuSans findfont
11.375 scalefont
setfont
20.809272 -1.729688 moveto
/zero glyphshow


grestore
gsave
43.649440 65.032800 translate
0.000000 rotate
/DejaVuSans-Oblique findfont
16.25 scalefont
setfont
0.000000 0.937500 moveto
/q glyphshow

/DejaVuSans findfont
16.25 scalefont
setfont
10.314941 0.937500 moveto
/zero glyphshow

/DejaVuSans findfont
11.375 scalefont
setfont
20.809272 -1.729688 moveto
/one glyphshow


grestore
gsave
104.595000 36.626850 translate
0.000000 rotate
0.000000 0.000000 m /two glyphshow
grestore
gsave
48.649440 25.199800 translate
0.000000 rotate
/DejaVuSans-Oblique findfont
19.5 scalefont
setfont
0.000000 0.531250 moveto
/c glyphshow

/DejaVuSans findfont
19.5 scalefont
setfont
10.721191 0.531250 moveto
/zero glyphshow


grestore

end
showpage
