%!PS-Adobe-3.0 EPSF-3.0
%%Title: h2.eps
%%Creator: matplotlib version 3.1.0, http://matplotlib.org/
%%CreationDate: Fri Dec 13 20:18:38 2019
%%Orientation: portrait
%%BoundingBox: 209.19660000000002 342.0504 402.8034 449.94960000000003
%%EndComments
%%BeginProlog
/mpldict 9 dict def
mpldict begin
/m { moveto } bind def
/l { lineto } bind def
/r { rlineto } bind def
/c { curveto } bind def
/cl { closepath } bind def
/box {
m
1 index 0 r
0 exch r
neg 0 r
cl
} bind def
/clipbox {
box
clip
newpath
} bind def
%!PS-Adobe-3.0 Resource-Font
%%Title: DejaVu Sans Oblique
%%Copyright: Copyright (c) 2003 by Bitstream, Inc. All Rights Reserved. Copyright (c) 2006 by Tavmjong Bah. All Rights Reserved. DejaVu changes are in public domain 
%%Creator: Converted from TrueType to type 3 by PPR
25 dict begin
/_d{bind def}bind def
/_m{moveto}_d
/_l{lineto}_d
/_cl{closepath eofill}_d
/_c{curveto}_d
/_sc{7 -1 roll{setcachedevice}{pop pop pop pop pop pop}ifelse}_d
/_e{exec}_d
/FontName /DejaVuSans-Oblique def
/PaintType 0 def
/FontMatrix[.001 0 0 .001 0 0]def
/FontBBox[-1016 -350 1659 1068]def
/FontType 3 def
/Encoding [ /R /X /q /y /pi ] def
/FontInfo 10 dict dup begin
/FamilyName (DejaVu Sans) def
/FullName (DejaVu Sans Oblique) def
/Notice (Copyright (c) 2003 by Bitstream, Inc. All Rights Reserved. Copyright (c) 2006 by Tavmjong Bah. All Rights Reserved. DejaVu changes are in public domain ) def
/Weight (Oblique) def
/Version (Version 2.35) def
/ItalicAngle -11.0 def
/isFixedPitch false def
/UnderlinePosition -130 def
/UnderlineThickness 90 def
end readonly def
/CharStrings 6 dict dup begin
/.notdef 0 def
/R{{695 0 27 0 600 729 _sc
252 648 _m
202 389 _l
329 389 _l
379 389 419 402 450 430 _c
480 458 496 494 496 538 _c
496 573 485 600 465 619 _c
444 638 414 648 376 648 _c
252 648 _l
433 350 _m
453 345 471 333 485 314 _c
499 294 515 256 533 199 _c
595 0 _l
491 0 _l
434 187 _l
419 235 402 267 383 283 _c
363 299 334 308 295 308 _c
186 308 _l
126 0 _l
27 0 _l
169 729 _l
}_e{391 729 _l
458 729 510 713 546 683 _c
582 653 600 609 600 552 _c
600 501 584 457 554 420 _c
523 382 483 359 433 350 _c
_cl}_e}_d
/X{685 0 -42 0 703 729 _sc
137 729 _m
237 729 _l
362 466 _l
588 729 _l
703 729 _l
403 381 _l
584 0 _l
485 0 _l
338 307 _l
72 0 _l
-42 0 _l
298 392 _l
137 729 _l
_cl}_d
/q{{635 0 46 -205 597 560 _sc
417 82 _m
393 50 364 27 332 11 _c
299 -5 263 -13 223 -13 _c
167 -13 124 5 93 42 _c
61 79 46 130 46 196 _c
46 248 55 299 75 348 _c
94 397 122 441 158 481 _c
181 506 208 525 239 539 _c
269 553 301 560 335 560 _c
375 560 409 552 435 536 _c
461 520 479 496 491 464 _c
507 546 _l
597 546 _l
451 -205 _l
361 -205 _l
417 82 _l
139 209 _m
}_e{139 161 149 124 169 99 _c
189 73 219 61 257 61 _c
313 61 362 88 402 142 _c
442 196 462 262 462 340 _c
462 386 451 422 431 447 _c
410 472 380 485 342 485 _c
313 485 287 478 263 465 _c
239 451 218 432 200 407 _c
181 380 166 349 155 313 _c
144 277 139 243 139 209 _c
_cl}_e}_d
/y{592 0 -24 -207 603 547 _sc
248 -50 _m
206 -120 172 -163 146 -181 _c
120 -198 86 -207 46 -207 _c
-24 -207 _l
-9 -132 _l
42 -132 _l
67 -132 88 -125 106 -111 _c
123 -97 143 -71 165 -31 _c
193 20 _l
72 547 _l
167 547 _l
258 128 _l
509 547 _l
603 547 _l
248 -50 _l
_cl}_d
/pi{{602 0 55 -18 615 547 _sc
91 547 _m
615 547 _l
598 457 _l
529 457 _l
463 121 _l
459 97 460 80 466 70 _c
472 60 483 55 501 55 _c
506 55 512 55 520 57 _c
527 57 532 58 534 58 _c
521 -6 _l
509 -10 497 -13 485 -15 _c
472 -17 460 -18 448 -18 _c
408 -18 383 -7 373 13 _c
362 34 362 73 374 131 _c
437 457 _l
235 457 _l
146 0 _l
55 0 _l
144 457 _l
74 457 _l
}_e{91 547 _l
_cl}_e}_d
end readonly def

/BuildGlyph
 {exch begin
 CharStrings exch
 2 copy known not{pop /.notdef}if
 true 3 1 roll get exec
 end}_d

/BuildChar {
 1 index /Encoding get exch get
 1 index /BuildGlyph get exec
}_d

FontName currentdict end definefont pop
%!PS-Adobe-3.0 Resource-Font
%%Title: DejaVu Sans
%%Copyright: Copyright (c) 2003 by Bitstream, Inc. All Rights Reserved. Copyright (c) 2006 by Tavmjong Bah. All Rights Reserved. DejaVu changes are in public domain 
%%Creator: Converted from TrueType to type 3 by PPR
25 dict begin
/_d{bind def}bind def
/_m{moveto}_d
/_l{lineto}_d
/_cl{closepath eofill}_d
/_c{curveto}_d
/_sc{7 -1 roll{setcachedevice}{pop pop pop pop pop pop}ifelse}_d
/_e{exec}_d
/FontName /DejaVuSans def
/PaintType 0 def
/FontMatrix[.001 0 0 .001 0 0]def
/FontBBox[-1021 -463 1793 1232]def
/FontType 3 def
/Encoding [ /parenleft /parenright /slash /zero /one /two ] def
/FontInfo 10 dict dup begin
/FamilyName (DejaVu Sans) def
/FullName (DejaVu Sans) def
/Notice (Copyright (c) 2003 by Bitstream, Inc. All Rights Reserved. Copyright (c) 2006 by Tavmjong Bah. All Rights Reserved. DejaVu changes are in public domain ) def
/Weight (Book) def
/Version (Version 2.35) def
/ItalicAngle 0.0 def
/isFixedPitch false def
/UnderlinePosition -130 def
/UnderlineThickness 90 def
end readonly def
/CharStrings 7 dict dup begin
/.notdef 0 def
/parenleft{390 0 86 -131 310 759 _sc
310 759 _m
266 683 234 609 213 536 _c
191 463 181 389 181 314 _c
181 238 191 164 213 91 _c
234 17 266 -56 310 -131 _c
232 -131 _l
183 -54 146 20 122 94 _c
98 168 86 241 86 314 _c
86 386 98 459 122 533 _c
146 607 182 682 232 759 _c
310 759 _l
_cl}_d
/parenright{390 0 80 -131 304 759 _sc
80 759 _m
158 759 _l
206 682 243 607 267 533 _c
291 459 304 386 304 314 _c
304 241 291 168 267 94 _c
243 20 206 -54 158 -131 _c
80 -131 _l
123 -56 155 17 177 91 _c
198 164 209 238 209 314 _c
209 389 198 463 177 536 _c
155 609 123 683 80 759 _c
_cl}_d
/slash{337 0 0 -92 337 729 _sc
254 729 _m
337 729 _l
83 -92 _l
0 -92 _l
254 729 _l
_cl}_d
/zero{636 0 66 -13 570 742 _sc
318 664 _m
267 664 229 639 203 589 _c
177 539 165 464 165 364 _c
165 264 177 189 203 139 _c
229 89 267 64 318 64 _c
369 64 407 89 433 139 _c
458 189 471 264 471 364 _c
471 464 458 539 433 589 _c
407 639 369 664 318 664 _c
318 742 _m
399 742 461 709 505 645 _c
548 580 570 486 570 364 _c
570 241 548 147 505 83 _c
461 19 399 -13 318 -13 _c
236 -13 173 19 130 83 _c
87 147 66 241 66 364 _c
66 486 87 580 130 645 _c
173 709 236 742 318 742 _c
_cl}_d
/one{636 0 110 0 544 729 _sc
124 83 _m
285 83 _l
285 639 _l
110 604 _l
110 694 _l
284 729 _l
383 729 _l
383 83 _l
544 83 _l
544 0 _l
124 0 _l
124 83 _l
_cl}_d
/two{{636 0 73 0 536 742 _sc
192 83 _m
536 83 _l
536 0 _l
73 0 _l
73 83 _l
110 121 161 173 226 239 _c
290 304 331 346 348 365 _c
380 400 402 430 414 455 _c
426 479 433 504 433 528 _c
433 566 419 598 392 622 _c
365 646 330 659 286 659 _c
255 659 222 653 188 643 _c
154 632 117 616 78 594 _c
78 694 _l
118 710 155 722 189 730 _c
223 738 255 742 284 742 _c
}_e{359 742 419 723 464 685 _c
509 647 532 597 532 534 _c
532 504 526 475 515 449 _c
504 422 484 390 454 354 _c
446 344 420 317 376 272 _c
332 227 271 164 192 83 _c
_cl}_e}_d
end readonly def

/BuildGlyph
 {exch begin
 CharStrings exch
 2 copy known not{pop /.notdef}if
 true 3 1 roll get exec
 end}_d

/BuildChar {
 1 index /Encoding get exch get
 1 index /BuildGlyph get exec
}_d

FontName currentdict end definefont pop
end
%%EndProlog
mpldict begin
209.197 342.05 translate
193.607 107.899 0 0 clipbox
gsave
0 0 m
193.6068 0 l
193.6068 107.8992 l
0 107.8992 l
cl
1.000 setgray
fill
grestore
2.000 setlinewidth
1 setlinejoin
2 setlinecap
[] 0 setdash
0.000 setgray
gsave
179.2 93.5 7.2 7.2 clipbox
85.116 69.5328 m
182.511 69.5328 l
stroke
grestore
gsave
179.2 93.5 7.2 7.2 clipbox
85.116 30.5748 m
182.511 30.5748 l
stroke
grestore
0.435 0.643 1.000 setrgbcolor
gsave
179.2 93.5 7.2 7.2 clipbox
143.553 30.5748 m
143.553 69.5328 l
stroke
grestore
gsave
179.2 93.5 7.2 7.2 clipbox
91.93365 56.87145 m
117.25635 56.87145 l
117.25635 82.19415 l
91.93365 82.19415 l
cl
0.020 0.729 0.714 setrgbcolor
fill
grestore
gsave
179.2 93.5 7.2 7.2 clipbox
91.93365 17.91345 m
117.25635 17.91345 l
117.25635 43.23615 l
91.93365 43.23615 l
cl
0.733 0.545 1.000 setrgbcolor
fill
grestore
1.500 setlinewidth
0 setlinejoin
0 setlinecap
[] 0 setdash
gsave
179.2 93.5 7.2 7.2 clipbox
143.553 26.776395 m
144.560349 26.776395 145.526575 27.176619 146.238878 27.888922 c
146.951181 28.601225 147.351405 29.567451 147.351405 30.5748 c
147.351405 31.582149 146.951181 32.548375 146.238878 33.260678 c
145.526575 33.972981 144.560349 34.373205 143.553 34.373205 c
142.545651 34.373205 141.579425 33.972981 140.867122 33.260678 c
140.154819 32.548375 139.754595 31.582149 139.754595 30.5748 c
139.754595 29.567451 140.154819 28.601225 140.867122 27.888922 c
141.579425 27.176619 142.545651 26.776395 143.553 26.776395 c
cl
gsave
fill
grestore
stroke
grestore
2.000 setlinewidth
gsave
179.2 93.5 7.2 7.2 clipbox
143.553 60.669855 m
145.90348 60.669855 148.158008 61.603711 149.820049 63.265751 c
151.482089 64.927792 152.415945 67.18232 152.415945 69.5328 c
152.415945 71.88328 151.482089 74.137808 149.820049 75.799849 c
148.158008 77.461889 145.90348 78.395745 143.553 78.395745 c
141.20252 78.395745 138.947992 77.461889 137.285951 75.799849 c
135.623911 74.137808 134.690055 71.88328 134.690055 69.5328 c
134.690055 67.18232 135.623911 64.927792 137.285951 63.265751 c
138.947992 61.603711 141.20252 60.669855 143.553 60.669855 c
cl
gsave
fill
grestore
stroke
grestore
1 setlinejoin
2 setlinecap
[] 0 setdash
1.000 setgray
gsave
179.2 93.5 7.2 7.2 clipbox
143.553 64.46826 m
143.553 74.59734 l
stroke
grestore
gsave
179.2 93.5 7.2 7.2 clipbox
138.48846 69.5328 m
148.61754 69.5328 l
stroke
grestore
0.000 setgray
gsave
100.095000 65.946863 translate
0.000000 rotate
/DejaVuSans-Oblique findfont
13.0 scalefont
setfont
0.000000 0.515625 moveto
/X glyphshow


grestore
gsave
97.095000 31.873205 translate
0.000000 rotate
/DejaVuSans-Oblique findfont
13.0 scalefont
setfont
0.000000 0.515625 moveto
/R glyphshow

/DejaVuSans-Oblique findfont
9.1 scalefont
setfont
9.032715 -1.617188 moveto
/y glyphshow


grestore
gsave
95.095000 20.477990 translate
0.000000 rotate
/DejaVuSans findfont
8.0 scalefont
setfont
0.000000 0.921875 moveto
/parenleft glyphshow

/DejaVuSans-Oblique findfont
8.0 scalefont
setfont
3.121094 0.921875 moveto
/pi glyphshow

/DejaVuSans findfont
8.0 scalefont
setfont
7.937500 0.921875 moveto
/slash glyphshow

10.632812 0.921875 moveto
/two glyphshow

15.722656 0.921875 moveto
/parenright glyphshow


grestore
gsave
47.637000 65.673425 translate
0.000000 rotate
/DejaVuSans-Oblique findfont
16.25 scalefont
setfont
0.000000 0.906250 moveto
/q glyphshow

/DejaVuSans findfont
11.375 scalefont
setfont
10.314941 -1.760938 moveto
/zero glyphshow


grestore
gsave
47.637000 26.715425 translate
0.000000 rotate
/DejaVuSans-Oblique findfont
16.25 scalefont
setfont
0.000000 0.906250 moveto
/q glyphshow

/DejaVuSans findfont
11.375 scalefont
setfont
10.314941 -1.760938 moveto
/one glyphshow


grestore

end
showpage
