%!PS-Adobe-3.0 EPSF-3.0
%%Title: qpe.eps
%%Creator: matplotlib version 3.1.0, http://matplotlib.org/
%%CreationDate: Sat Dec  7 21:42:41 2019
%%Orientation: portrait
%%BoundingBox: 14.406600000000104 244.65540000000001 597.5934 547.3446
%%EndComments
%%BeginProlog
/mpldict 9 dict def
mpldict begin
/m { moveto } bind def
/l { lineto } bind def
/r { rlineto } bind def
/c { curveto } bind def
/cl { closepath } bind def
/box {
m
1 index 0 r
0 exch r
neg 0 r
cl
} bind def
/clipbox {
box
clip
newpath
} bind def
%!PS-Adobe-3.0 Resource-Font
%%Title: DejaVu Sans Oblique
%%Copyright: Copyright (c) 2003 by Bitstream, Inc. All Rights Reserved. Copyright (c) 2006 by Tavmjong Bah. All Rights Reserved. DejaVu changes are in public domain 
%%Creator: Converted from TrueType to type 3 by PPR
25 dict begin
/_d{bind def}bind def
/_m{moveto}_d
/_l{lineto}_d
/_cl{closepath eofill}_d
/_c{curveto}_d
/_sc{7 -1 roll{setcachedevice}{pop pop pop pop pop pop}ifelse}_d
/_e{exec}_d
/FontName /DejaVuSans-Oblique def
/PaintType 0 def
/FontMatrix[.001 0 0 .001 0 0]def
/FontBBox[-1016 -350 1659 1068]def
/FontType 3 def
/Encoding [ /H /U /X /c /q /pi ] def
/FontInfo 10 dict dup begin
/FamilyName (DejaVu Sans) def
/FullName (DejaVu Sans Oblique) def
/Notice (Copyright (c) 2003 by Bitstream, Inc. All Rights Reserved. Copyright (c) 2006 by Tavmjong Bah. All Rights Reserved. DejaVu changes are in public domain ) def
/Weight (Oblique) def
/Version (Version 2.35) def
/ItalicAngle -11.0 def
/isFixedPitch false def
/UnderlinePosition -130 def
/UnderlineThickness 90 def
end readonly def
/CharStrings 7 dict dup begin
/.notdef 0 def
/H{752 0 27 0 725 729 _sc
169 729 _m
268 729 _l
210 430 _l
568 430 _l
626 729 _l
725 729 _l
583 0 _l
484 0 _l
552 347 _l
194 347 _l
126 0 _l
27 0 _l
169 729 _l
_cl}_d
/U{732 0 58 -13 713 729 _sc
155 729 _m
254 729 _l
168 286 _l
164 266 162 249 160 237 _c
158 224 158 213 158 203 _c
158 158 170 124 195 101 _c
220 77 257 66 306 66 _c
368 66 417 83 452 117 _c
487 151 512 208 528 286 _c
614 729 _l
713 729 _l
625 274 _l
605 175 569 102 515 56 _c
461 10 388 -13 295 -13 _c
222 -13 164 5 122 41 _c
79 77 58 127 58 190 _c
58 201 58 214 60 228 _c
62 242 64 258 68 274 _c
155 729 _l
_cl}_d
/X{685 0 -42 0 703 729 _sc
137 729 _m
237 729 _l
362 466 _l
588 729 _l
703 729 _l
403 381 _l
584 0 _l
485 0 _l
338 307 _l
72 0 _l
-42 0 _l
298 392 _l
137 729 _l
_cl}_d
/c{{550 0 46 -13 536 560 _sc
536 526 _m
518 437 _l
496 452 473 464 449 472 _c
425 480 400 484 374 484 _c
345 484 318 479 292 469 _c
266 459 244 444 227 426 _c
199 397 177 364 162 326 _c
146 288 139 248 139 208 _c
139 158 151 122 176 98 _c
200 74 238 62 288 62 _c
312 62 339 65 367 73 _c
395 80 424 91 454 107 _c
437 18 _l
411 7 384 0 356 -5 _c
}_e{328 -10 300 -13 272 -13 _c
199 -13 143 5 104 41 _c
65 77 46 128 46 196 _c
46 252 56 304 76 352 _c
96 400 127 443 167 481 _c
194 507 226 526 263 540 _c
299 553 340 560 384 560 _c
409 560 434 557 459 551 _c
484 545 510 537 536 526 _c
_cl}_e}_d
/q{{635 0 46 -205 597 560 _sc
417 82 _m
393 50 364 27 332 11 _c
299 -5 263 -13 223 -13 _c
167 -13 124 5 93 42 _c
61 79 46 130 46 196 _c
46 248 55 299 75 348 _c
94 397 122 441 158 481 _c
181 506 208 525 239 539 _c
269 553 301 560 335 560 _c
375 560 409 552 435 536 _c
461 520 479 496 491 464 _c
507 546 _l
597 546 _l
451 -205 _l
361 -205 _l
417 82 _l
139 209 _m
}_e{139 161 149 124 169 99 _c
189 73 219 61 257 61 _c
313 61 362 88 402 142 _c
442 196 462 262 462 340 _c
462 386 451 422 431 447 _c
410 472 380 485 342 485 _c
313 485 287 478 263 465 _c
239 451 218 432 200 407 _c
181 380 166 349 155 313 _c
144 277 139 243 139 209 _c
_cl}_e}_d
/pi{{602 0 55 -18 615 547 _sc
91 547 _m
615 547 _l
598 457 _l
529 457 _l
463 121 _l
459 97 460 80 466 70 _c
472 60 483 55 501 55 _c
506 55 512 55 520 57 _c
527 57 532 58 534 58 _c
521 -6 _l
509 -10 497 -13 485 -15 _c
472 -17 460 -18 448 -18 _c
408 -18 383 -7 373 13 _c
362 34 362 73 374 131 _c
437 457 _l
235 457 _l
146 0 _l
55 0 _l
144 457 _l
74 457 _l
}_e{91 547 _l
_cl}_e}_d
end readonly def

/BuildGlyph
 {exch begin
 CharStrings exch
 2 copy known not{pop /.notdef}if
 true 3 1 roll get exec
 end}_d

/BuildChar {
 1 index /Encoding get exch get
 1 index /BuildGlyph get exec
}_d

FontName currentdict end definefont pop
%!PS-Adobe-3.0 Resource-Font
%%Title: DejaVu Sans
%%Copyright: Copyright (c) 2003 by Bitstream, Inc. All Rights Reserved. Copyright (c) 2006 by Tavmjong Bah. All Rights Reserved. DejaVu changes are in public domain 
%%Creator: Converted from TrueType to type 3 by PPR
25 dict begin
/_d{bind def}bind def
/_m{moveto}_d
/_l{lineto}_d
/_cl{closepath eofill}_d
/_c{curveto}_d
/_sc{7 -1 roll{setcachedevice}{pop pop pop pop pop pop}ifelse}_d
/_e{exec}_d
/FontName /DejaVuSans def
/PaintType 0 def
/FontMatrix[.001 0 0 .001 0 0]def
/FontBBox[-1021 -463 1793 1232]def
/FontType 3 def
/Encoding [ /slash /zero /one /two /three /four /five /eight /minus ] def
/FontInfo 10 dict dup begin
/FamilyName (DejaVu Sans) def
/FullName (DejaVu Sans) def
/Notice (Copyright (c) 2003 by Bitstream, Inc. All Rights Reserved. Copyright (c) 2006 by Tavmjong Bah. All Rights Reserved. DejaVu changes are in public domain ) def
/Weight (Book) def
/Version (Version 2.35) def
/ItalicAngle 0.0 def
/isFixedPitch false def
/UnderlinePosition -130 def
/UnderlineThickness 90 def
end readonly def
/CharStrings 10 dict dup begin
/.notdef 0 def
/slash{337 0 0 -92 337 729 _sc
254 729 _m
337 729 _l
83 -92 _l
0 -92 _l
254 729 _l
_cl}_d
/zero{636 0 66 -13 570 742 _sc
318 664 _m
267 664 229 639 203 589 _c
177 539 165 464 165 364 _c
165 264 177 189 203 139 _c
229 89 267 64 318 64 _c
369 64 407 89 433 139 _c
458 189 471 264 471 364 _c
471 464 458 539 433 589 _c
407 639 369 664 318 664 _c
318 742 _m
399 742 461 709 505 645 _c
548 580 570 486 570 364 _c
570 241 548 147 505 83 _c
461 19 399 -13 318 -13 _c
236 -13 173 19 130 83 _c
87 147 66 241 66 364 _c
66 486 87 580 130 645 _c
173 709 236 742 318 742 _c
_cl}_d
/one{636 0 110 0 544 729 _sc
124 83 _m
285 83 _l
285 639 _l
110 604 _l
110 694 _l
284 729 _l
383 729 _l
383 83 _l
544 83 _l
544 0 _l
124 0 _l
124 83 _l
_cl}_d
/two{{636 0 73 0 536 742 _sc
192 83 _m
536 83 _l
536 0 _l
73 0 _l
73 83 _l
110 121 161 173 226 239 _c
290 304 331 346 348 365 _c
380 400 402 430 414 455 _c
426 479 433 504 433 528 _c
433 566 419 598 392 622 _c
365 646 330 659 286 659 _c
255 659 222 653 188 643 _c
154 632 117 616 78 594 _c
78 694 _l
118 710 155 722 189 730 _c
223 738 255 742 284 742 _c
}_e{359 742 419 723 464 685 _c
509 647 532 597 532 534 _c
532 504 526 475 515 449 _c
504 422 484 390 454 354 _c
446 344 420 317 376 272 _c
332 227 271 164 192 83 _c
_cl}_e}_d
/three{{636 0 76 -13 556 742 _sc
406 393 _m
453 383 490 362 516 330 _c
542 298 556 258 556 212 _c
556 140 531 84 482 45 _c
432 6 362 -13 271 -13 _c
240 -13 208 -10 176 -4 _c
144 1 110 10 76 22 _c
76 117 _l
103 101 133 89 166 81 _c
198 73 232 69 268 69 _c
330 69 377 81 409 105 _c
441 129 458 165 458 212 _c
458 254 443 288 413 312 _c
383 336 341 349 287 349 _c
}_e{202 349 _l
202 430 _l
291 430 _l
339 430 376 439 402 459 _c
428 478 441 506 441 543 _c
441 580 427 609 401 629 _c
374 649 336 659 287 659 _c
260 659 231 656 200 650 _c
169 644 135 635 98 623 _c
98 711 _l
135 721 170 729 203 734 _c
235 739 266 742 296 742 _c
370 742 429 725 473 691 _c
517 657 539 611 539 553 _c
539 513 527 479 504 451 _c
481 423 448 403 406 393 _c
_cl}_e}_d
/four{636 0 49 0 580 729 _sc
378 643 _m
129 254 _l
378 254 _l
378 643 _l
352 729 _m
476 729 _l
476 254 _l
580 254 _l
580 172 _l
476 172 _l
476 0 _l
378 0 _l
378 172 _l
49 172 _l
49 267 _l
352 729 _l
_cl}_d
/five{{636 0 77 -13 549 729 _sc
108 729 _m
495 729 _l
495 646 _l
198 646 _l
198 467 _l
212 472 227 476 241 478 _c
255 480 270 482 284 482 _c
365 482 429 459 477 415 _c
525 370 549 310 549 234 _c
549 155 524 94 475 51 _c
426 8 357 -13 269 -13 _c
238 -13 207 -10 175 -6 _c
143 -1 111 6 77 17 _c
77 116 _l
106 100 136 88 168 80 _c
199 72 232 69 267 69 _c
}_e{323 69 368 83 401 113 _c
433 143 450 183 450 234 _c
450 284 433 324 401 354 _c
368 384 323 399 267 399 _c
241 399 214 396 188 390 _c
162 384 135 375 108 363 _c
108 729 _l
_cl}_e}_d
/eight{{636 0 68 -13 568 742 _sc
318 346 _m
271 346 234 333 207 308 _c
180 283 167 249 167 205 _c
167 161 180 126 207 101 _c
234 76 271 64 318 64 _c
364 64 401 76 428 102 _c
455 127 469 161 469 205 _c
469 249 455 283 429 308 _c
402 333 365 346 318 346 _c
219 388 _m
177 398 144 418 120 447 _c
96 476 85 511 85 553 _c
85 611 105 657 147 691 _c
188 725 245 742 318 742 _c
}_e{390 742 447 725 489 691 _c
530 657 551 611 551 553 _c
551 511 539 476 515 447 _c
491 418 459 398 417 388 _c
464 377 501 355 528 323 _c
554 291 568 251 568 205 _c
568 134 546 80 503 43 _c
459 5 398 -13 318 -13 _c
237 -13 175 5 132 43 _c
89 80 68 134 68 205 _c
68 251 81 291 108 323 _c
134 355 171 377 219 388 _c
183 544 _m
183 506 194 476 218 455 _c
}_e{242 434 275 424 318 424 _c
360 424 393 434 417 455 _c
441 476 453 506 453 544 _c
453 582 441 611 417 632 _c
393 653 360 664 318 664 _c
275 664 242 653 218 632 _c
194 611 183 582 183 544 _c
_cl}_e}_d
/minus{838 0 106 272 732 355 _sc
106 355 _m
732 355 _l
732 272 _l
106 272 _l
106 355 _l
_cl}_d
end readonly def

/BuildGlyph
 {exch begin
 CharStrings exch
 2 copy known not{pop /.notdef}if
 true 3 1 roll get exec
 end}_d

/BuildChar {
 1 index /Encoding get exch get
 1 index /BuildGlyph get exec
}_d

FontName currentdict end definefont pop
end
%%EndProlog
mpldict begin
14.407 244.655 translate
583.187 302.689 0 0 clipbox
gsave
0 0 m
583.1868 0 l
583.1868 302.6892 l
0 302.6892 l
cl
1.000 setgray
fill
grestore
gsave
568.8 288.3 7.2 7.2 clipbox
372.23646 39.437745 m
382.36554 39.437745 l
377.301 30.5748 l
cl
0.467 0.533 0.600 setrgbcolor
fill
grestore
gsave
568.8 288.3 7.2 7.2 clipbox
450.15246 39.437745 m
460.28154 39.437745 l
455.217 30.5748 l
cl
0.467 0.533 0.600 setrgbcolor
fill
grestore
gsave
568.8 288.3 7.2 7.2 clipbox
489.11046 39.437745 m
499.23954 39.437745 l
494.175 30.5748 l
cl
0.467 0.533 0.600 setrgbcolor
fill
grestore
gsave
568.8 288.3 7.2 7.2 clipbox
528.06846 39.437745 m
538.19754 39.437745 l
533.133 30.5748 l
cl
0.467 0.533 0.600 setrgbcolor
fill
grestore
2.000 setlinewidth
1 setlinejoin
2 setlinecap
[] 0 setdash
0.000 setgray
gsave
568.8 288.3 7.2 7.2 clipbox
85.116 264.3228 m
572.091 264.3228 l
stroke
grestore
gsave
568.8 288.3 7.2 7.2 clipbox
85.116 225.3648 m
572.091 225.3648 l
stroke
grestore
gsave
568.8 288.3 7.2 7.2 clipbox
85.116 186.4068 m
572.091 186.4068 l
stroke
grestore
gsave
568.8 288.3 7.2 7.2 clipbox
85.116 147.4488 m
572.091 147.4488 l
stroke
grestore
gsave
568.8 288.3 7.2 7.2 clipbox
85.116 108.4908 m
572.091 108.4908 l
stroke
grestore
gsave
568.8 288.3 7.2 7.2 clipbox
85.116 69.5328 m
572.091 69.5328 l
stroke
grestore
0.467 0.533 0.600 setrgbcolor
gsave
568.8 288.3 7.2 7.2 clipbox
85.116 31.840935 m
572.091 31.840935 l
stroke
grestore
gsave
568.8 288.3 7.2 7.2 clipbox
85.116 29.308665 m
572.091 29.308665 l
stroke
grestore
0.733 0.545 1.000 setrgbcolor
gsave
568.8 288.3 7.2 7.2 clipbox
182.511 69.5328 m
182.511 147.4488 l
stroke
grestore
gsave
568.8 288.3 7.2 7.2 clipbox
221.469 147.4488 m
221.469 264.3228 l
stroke
grestore
gsave
568.8 288.3 7.2 7.2 clipbox
260.427 147.4488 m
260.427 225.3648 l
stroke
grestore
gsave
568.8 288.3 7.2 7.2 clipbox
299.385 147.4488 m
299.385 186.4068 l
stroke
grestore
gsave
568.8 288.3 7.2 7.2 clipbox
338.343 186.4068 m
338.343 264.3228 l
stroke
grestore
gsave
568.8 288.3 7.2 7.2 clipbox
377.301 186.4068 m
377.301 225.3648 l
stroke
grestore
0.467 0.533 0.600 setrgbcolor
gsave
568.8 288.3 7.2 7.2 clipbox
378.567135 147.4488 m
378.567135 39.437745 l
stroke
grestore
gsave
568.8 288.3 7.2 7.2 clipbox
376.034865 147.4488 m
376.034865 39.437745 l
stroke
grestore
0.733 0.545 1.000 setrgbcolor
gsave
568.8 288.3 7.2 7.2 clipbox
416.259 225.3648 m
416.259 264.3228 l
stroke
grestore
0.467 0.533 0.600 setrgbcolor
gsave
568.8 288.3 7.2 7.2 clipbox
456.483135 186.4068 m
456.483135 39.437745 l
stroke
grestore
gsave
568.8 288.3 7.2 7.2 clipbox
453.950865 186.4068 m
453.950865 39.437745 l
stroke
grestore
gsave
568.8 288.3 7.2 7.2 clipbox
495.441135 264.3228 m
495.441135 39.437745 l
stroke
grestore
gsave
568.8 288.3 7.2 7.2 clipbox
492.908865 264.3228 m
492.908865 39.437745 l
stroke
grestore
gsave
568.8 288.3 7.2 7.2 clipbox
534.399135 225.3648 m
534.399135 39.437745 l
stroke
grestore
gsave
568.8 288.3 7.2 7.2 clipbox
531.866865 225.3648 m
531.866865 39.437745 l
stroke
grestore
1.500 setlinewidth
gsave
568.8 288.3 7.2 7.2 clipbox
108.4908 26.679 m
112.3866 34.4706 l
stroke
grestore
gsave
568.8 288.3 7.2 7.2 clipbox
91.93365 95.82945 m
117.25635 95.82945 l
117.25635 121.15215 l
91.93365 121.15215 l
cl
0.020 0.729 0.714 setrgbcolor
fill
grestore
gsave
568.8 288.3 7.2 7.2 clipbox
91.93365 56.87145 m
117.25635 56.87145 l
117.25635 82.19415 l
91.93365 82.19415 l
cl
0.020 0.729 0.714 setrgbcolor
fill
grestore
gsave
568.8 288.3 7.2 7.2 clipbox
91.93365 251.66145 m
117.25635 251.66145 l
117.25635 276.98415 l
91.93365 276.98415 l
cl
0.435 0.643 1.000 setrgbcolor
fill
grestore
gsave
568.8 288.3 7.2 7.2 clipbox
91.93365 212.70345 m
117.25635 212.70345 l
117.25635 238.02615 l
91.93365 238.02615 l
cl
0.435 0.643 1.000 setrgbcolor
fill
grestore
gsave
568.8 288.3 7.2 7.2 clipbox
91.93365 173.74545 m
117.25635 173.74545 l
117.25635 199.06815 l
91.93365 199.06815 l
cl
0.435 0.643 1.000 setrgbcolor
fill
grestore
gsave
568.8 288.3 7.2 7.2 clipbox
91.93365 134.78745 m
117.25635 134.78745 l
117.25635 160.11015 l
91.93365 160.11015 l
cl
0.435 0.643 1.000 setrgbcolor
fill
grestore
gsave
568.8 288.3 7.2 7.2 clipbox
130.89165 56.87145 m
156.21435 56.87145 l
156.21435 82.19415 l
130.89165 82.19415 l
cl
0.435 0.643 1.000 setrgbcolor
fill
grestore
0 setlinejoin
0 setlinecap
[] 0 setdash
0.733 0.545 1.000 setrgbcolor
gsave
568.8 288.3 7.2 7.2 clipbox
182.511 143.650395 m
183.518349 143.650395 184.484575 144.050619 185.196878 144.762922 c
185.909181 145.475225 186.309405 146.441451 186.309405 147.4488 c
186.309405 148.456149 185.909181 149.422375 185.196878 150.134678 c
184.484575 150.846981 183.518349 151.247205 182.511 151.247205 c
181.503651 151.247205 180.537425 150.846981 179.825122 150.134678 c
179.112819 149.422375 178.712595 148.456149 178.712595 147.4488 c
178.712595 146.441451 179.112819 145.475225 179.825122 144.762922 c
180.537425 144.050619 181.503651 143.650395 182.511 143.650395 c
cl
gsave
fill
grestore
stroke
grestore
gsave
568.8 288.3 7.2 7.2 clipbox
182.511 104.692395 m
183.518349 104.692395 184.484575 105.092619 185.196878 105.804922 c
185.909181 106.517225 186.309405 107.483451 186.309405 108.4908 c
186.309405 109.498149 185.909181 110.464375 185.196878 111.176678 c
184.484575 111.888981 183.518349 112.289205 182.511 112.289205 c
181.503651 112.289205 180.537425 111.888981 179.825122 111.176678 c
179.112819 110.464375 178.712595 109.498149 178.712595 108.4908 c
178.712595 107.483451 179.112819 106.517225 179.825122 105.804922 c
180.537425 105.092619 181.503651 104.692395 182.511 104.692395 c
cl
gsave
fill
grestore
stroke
grestore
2.000 setlinewidth
gsave
568.8 288.3 7.2 7.2 clipbox
182.511 60.669855 m
184.86148 60.669855 187.116008 61.603711 188.778049 63.265751 c
190.440089 64.927792 191.373945 67.18232 191.373945 69.5328 c
191.373945 71.88328 190.440089 74.137808 188.778049 75.799849 c
187.116008 77.461889 184.86148 78.395745 182.511 78.395745 c
180.16052 78.395745 177.905992 77.461889 176.243951 75.799849 c
174.581911 74.137808 173.648055 71.88328 173.648055 69.5328 c
173.648055 67.18232 174.581911 64.927792 176.243951 63.265751 c
177.905992 61.603711 180.16052 60.669855 182.511 60.669855 c
cl
gsave
fill
grestore
stroke
grestore
gsave
568.8 288.3 7.2 7.2 clipbox
208.80765 56.87145 m
234.13035 56.87145 l
234.13035 82.19415 l
208.80765 82.19415 l
cl
0.435 0.643 1.000 setrgbcolor
fill
grestore
1.500 setlinewidth
gsave
568.8 288.3 7.2 7.2 clipbox
221.469 143.650395 m
222.476349 143.650395 223.442575 144.050619 224.154878 144.762922 c
224.867181 145.475225 225.267405 146.441451 225.267405 147.4488 c
225.267405 148.456149 224.867181 149.422375 224.154878 150.134678 c
223.442575 150.846981 222.476349 151.247205 221.469 151.247205 c
220.461651 151.247205 219.495425 150.846981 218.783122 150.134678 c
218.070819 149.422375 217.670595 148.456149 217.670595 147.4488 c
217.670595 146.441451 218.070819 145.475225 218.783122 144.762922 c
219.495425 144.050619 220.461651 143.650395 221.469 143.650395 c
cl
gsave
fill
grestore
stroke
grestore
gsave
568.8 288.3 7.2 7.2 clipbox
208.80765 251.66145 m
234.13035 251.66145 l
234.13035 276.98415 l
208.80765 276.98415 l
cl
fill
grestore
gsave
568.8 288.3 7.2 7.2 clipbox
260.427 143.650395 m
261.434349 143.650395 262.400575 144.050619 263.112878 144.762922 c
263.825181 145.475225 264.225405 146.441451 264.225405 147.4488 c
264.225405 148.456149 263.825181 149.422375 263.112878 150.134678 c
262.400575 150.846981 261.434349 151.247205 260.427 151.247205 c
259.419651 151.247205 258.453425 150.846981 257.741122 150.134678 c
257.028819 149.422375 256.628595 148.456149 256.628595 147.4488 c
256.628595 146.441451 257.028819 145.475225 257.741122 144.762922 c
258.453425 144.050619 259.419651 143.650395 260.427 143.650395 c
cl
gsave
fill
grestore
stroke
grestore
gsave
568.8 288.3 7.2 7.2 clipbox
247.76565 212.70345 m
273.08835 212.70345 l
273.08835 238.02615 l
247.76565 238.02615 l
cl
fill
grestore
gsave
568.8 288.3 7.2 7.2 clipbox
299.385 143.650395 m
300.392349 143.650395 301.358575 144.050619 302.070878 144.762922 c
302.783181 145.475225 303.183405 146.441451 303.183405 147.4488 c
303.183405 148.456149 302.783181 149.422375 302.070878 150.134678 c
301.358575 150.846981 300.392349 151.247205 299.385 151.247205 c
298.377651 151.247205 297.411425 150.846981 296.699122 150.134678 c
295.986819 149.422375 295.586595 148.456149 295.586595 147.4488 c
295.586595 146.441451 295.986819 145.475225 296.699122 144.762922 c
297.411425 144.050619 298.377651 143.650395 299.385 143.650395 c
cl
gsave
fill
grestore
stroke
grestore
gsave
568.8 288.3 7.2 7.2 clipbox
286.72365 173.74545 m
312.04635 173.74545 l
312.04635 199.06815 l
286.72365 199.06815 l
cl
fill
grestore
gsave
568.8 288.3 7.2 7.2 clipbox
325.68165 134.78745 m
351.00435 134.78745 l
351.00435 160.11015 l
325.68165 160.11015 l
cl
0.435 0.643 1.000 setrgbcolor
fill
grestore
gsave
568.8 288.3 7.2 7.2 clipbox
338.343 182.608395 m
339.350349 182.608395 340.316575 183.008619 341.028878 183.720922 c
341.741181 184.433225 342.141405 185.399451 342.141405 186.4068 c
342.141405 187.414149 341.741181 188.380375 341.028878 189.092678 c
340.316575 189.804981 339.350349 190.205205 338.343 190.205205 c
337.335651 190.205205 336.369425 189.804981 335.657122 189.092678 c
334.944819 188.380375 334.544595 187.414149 334.544595 186.4068 c
334.544595 185.399451 334.944819 184.433225 335.657122 183.720922 c
336.369425 183.008619 337.335651 182.608395 338.343 182.608395 c
cl
gsave
fill
grestore
stroke
grestore
gsave
568.8 288.3 7.2 7.2 clipbox
325.68165 251.66145 m
351.00435 251.66145 l
351.00435 276.98415 l
325.68165 276.98415 l
cl
fill
grestore
gsave
568.8 288.3 7.2 7.2 clipbox
377.301 182.608395 m
378.308349 182.608395 379.274575 183.008619 379.986878 183.720922 c
380.699181 184.433225 381.099405 185.399451 381.099405 186.4068 c
381.099405 187.414149 380.699181 188.380375 379.986878 189.092678 c
379.274575 189.804981 378.308349 190.205205 377.301 190.205205 c
376.293651 190.205205 375.327425 189.804981 374.615122 189.092678 c
373.902819 188.380375 373.502595 187.414149 373.502595 186.4068 c
373.502595 185.399451 373.902819 184.433225 374.615122 183.720922 c
375.327425 183.008619 376.293651 182.608395 377.301 182.608395 c
cl
gsave
fill
grestore
stroke
grestore
gsave
568.8 288.3 7.2 7.2 clipbox
364.63965 212.70345 m
389.96235 212.70345 l
389.96235 238.02615 l
364.63965 238.02615 l
cl
fill
grestore
gsave
568.8 288.3 7.2 7.2 clipbox
364.63965 134.78745 m
389.96235 134.78745 l
389.96235 160.11015 l
364.63965 160.11015 l
cl
0.000 setgray
fill
grestore
2.000 setlinewidth
1.000 setgray
gsave
568.8 288.3 7.2 7.2 clipbox
386.163945 143.650395 m
386.163945 146.000093 385.229536 148.255956 383.568049 149.917444 c
381.906561 151.578931 379.650698 152.51334 377.301 152.51334 c
374.951302 152.51334 372.695439 151.578931 371.033951 149.917444 c
369.372464 148.255956 368.438055 146.000093 368.438055 143.650395 c
stroke
grestore
gsave
568.8 288.3 7.2 7.2 clipbox
403.59765 173.74545 m
428.92035 173.74545 l
428.92035 199.06815 l
403.59765 199.06815 l
cl
0.435 0.643 1.000 setrgbcolor
fill
grestore
1.500 setlinewidth
0.733 0.545 1.000 setrgbcolor
gsave
568.8 288.3 7.2 7.2 clipbox
416.259 221.566395 m
417.266349 221.566395 418.232575 221.966619 418.944878 222.678922 c
419.657181 223.391225 420.057405 224.357451 420.057405 225.3648 c
420.057405 226.372149 419.657181 227.338375 418.944878 228.050678 c
418.232575 228.762981 417.266349 229.163205 416.259 229.163205 c
415.251651 229.163205 414.285425 228.762981 413.573122 228.050678 c
412.860819 227.338375 412.460595 226.372149 412.460595 225.3648 c
412.460595 224.357451 412.860819 223.391225 413.573122 222.678922 c
414.285425 221.966619 415.251651 221.566395 416.259 221.566395 c
cl
gsave
fill
grestore
stroke
grestore
gsave
568.8 288.3 7.2 7.2 clipbox
403.59765 251.66145 m
428.92035 251.66145 l
428.92035 276.98415 l
403.59765 276.98415 l
cl
fill
grestore
gsave
568.8 288.3 7.2 7.2 clipbox
442.55565 212.70345 m
467.87835 212.70345 l
467.87835 238.02615 l
442.55565 238.02615 l
cl
0.435 0.643 1.000 setrgbcolor
fill
grestore
gsave
568.8 288.3 7.2 7.2 clipbox
442.55565 251.66145 m
467.87835 251.66145 l
467.87835 276.98415 l
442.55565 276.98415 l
cl
0.435 0.643 1.000 setrgbcolor
fill
grestore
gsave
568.8 288.3 7.2 7.2 clipbox
442.55565 173.74545 m
467.87835 173.74545 l
467.87835 199.06815 l
442.55565 199.06815 l
cl
0.000 setgray
fill
grestore
2.000 setlinewidth
1.000 setgray
gsave
568.8 288.3 7.2 7.2 clipbox
464.079945 182.608395 m
464.079945 184.958093 463.145536 187.213956 461.484049 188.875444 c
459.822561 190.536931 457.566698 191.47134 455.217 191.47134 c
452.867302 191.47134 450.611439 190.536931 448.949951 188.875444 c
447.288464 187.213956 446.354055 184.958093 446.354055 182.608395 c
stroke
grestore
gsave
568.8 288.3 7.2 7.2 clipbox
481.51365 251.66145 m
506.83635 251.66145 l
506.83635 276.98415 l
481.51365 276.98415 l
cl
0.000 setgray
fill
grestore
gsave
568.8 288.3 7.2 7.2 clipbox
503.037945 260.524395 m
503.037945 262.874093 502.103536 265.129956 500.442049 266.791444 c
498.780561 268.452931 496.524698 269.38734 494.175 269.38734 c
491.825302 269.38734 489.569439 268.452931 487.907951 266.791444 c
486.246464 265.129956 485.312055 262.874093 485.312055 260.524395 c
stroke
grestore
gsave
568.8 288.3 7.2 7.2 clipbox
520.47165 212.70345 m
545.79435 212.70345 l
545.79435 238.02615 l
520.47165 238.02615 l
cl
0.000 setgray
fill
grestore
gsave
568.8 288.3 7.2 7.2 clipbox
541.995945 221.566395 m
541.995945 223.916093 541.061536 226.171956 539.400049 227.833444 c
537.738561 229.494931 535.482698 230.42934 533.133 230.42934 c
530.783302 230.42934 528.527439 229.494931 526.865951 227.833444 c
525.204464 226.171956 524.270055 223.916093 524.270055 221.566395 c
stroke
grestore
1 setlinejoin
2 setlinecap
[] 0 setdash
gsave
568.8 288.3 7.2 7.2 clipbox
377.301 143.650395 m
386.163945 152.51334 l
stroke
grestore
gsave
568.8 288.3 7.2 7.2 clipbox
455.217 182.608395 m
464.079945 191.47134 l
stroke
grestore
gsave
568.8 288.3 7.2 7.2 clipbox
494.175 260.524395 m
503.037945 269.38734 l
stroke
grestore
gsave
568.8 288.3 7.2 7.2 clipbox
533.133 221.566395 m
541.995945 230.42934 l
stroke
grestore
gsave
568.8 288.3 7.2 7.2 clipbox
182.511 64.46826 m
182.511 74.59734 l
stroke
grestore
gsave
568.8 288.3 7.2 7.2 clipbox
177.44646 69.5328 m
187.57554 69.5328 l
stroke
grestore
0.000 setgray
gsave
100.095000 104.904862 translate
0.000000 rotate
/DejaVuSans-Oblique findfont
13.0 scalefont
setfont
0.000000 0.515625 moveto
/X glyphshow


grestore
gsave
100.095000 65.946862 translate
0.000000 rotate
/DejaVuSans-Oblique findfont
13.0 scalefont
setfont
0.000000 0.515625 moveto
/X glyphshow


grestore
gsave
99.595000 260.736862 translate
0.000000 rotate
/DejaVuSans-Oblique findfont
13.0 scalefont
setfont
0.000000 0.515625 moveto
/H glyphshow


grestore
gsave
99.595000 221.778862 translate
0.000000 rotate
/DejaVuSans-Oblique findfont
13.0 scalefont
setfont
0.000000 0.515625 moveto
/H glyphshow


grestore
gsave
99.595000 182.820862 translate
0.000000 rotate
/DejaVuSans-Oblique findfont
13.0 scalefont
setfont
0.000000 0.515625 moveto
/H glyphshow


grestore
gsave
99.595000 143.862862 translate
0.000000 rotate
/DejaVuSans-Oblique findfont
13.0 scalefont
setfont
0.000000 0.515625 moveto
/H glyphshow


grestore
gsave
138.553000 65.946862 translate
0.000000 rotate
/DejaVuSans-Oblique findfont
13.0 scalefont
setfont
0.000000 0.515625 moveto
/H glyphshow


grestore
gsave
216.469000 65.946862 translate
0.000000 rotate
/DejaVuSans-Oblique findfont
13.0 scalefont
setfont
0.000000 0.515625 moveto
/H glyphshow


grestore
gsave
213.469000 264.621205 translate
0.000000 rotate
/DejaVuSans-Oblique findfont
13.0 scalefont
setfont
0.000000 0.515625 moveto
/U glyphshow

/DejaVuSans findfont
9.1 scalefont
setfont
9.515137 -1.617188 moveto
/one glyphshow


grestore
gsave
211.469000 254.522865 translate
0.000000 rotate
/DejaVuSans findfont
8.0 scalefont
setfont
0.000000 0.062500 moveto
/minus glyphshow

/DejaVuSans-Oblique findfont
8.0 scalefont
setfont
6.703125 0.062500 moveto
/pi glyphshow

/DejaVuSans findfont
8.0 scalefont
setfont
11.519531 0.062500 moveto
/slash glyphshow

14.214844 0.062500 moveto
/eight glyphshow


grestore
gsave
252.427000 225.663205 translate
0.000000 rotate
/DejaVuSans-Oblique findfont
13.0 scalefont
setfont
0.000000 0.515625 moveto
/U glyphshow

/DejaVuSans findfont
9.1 scalefont
setfont
9.515137 -1.617188 moveto
/one glyphshow


grestore
gsave
250.427000 215.564865 translate
0.000000 rotate
/DejaVuSans findfont
8.0 scalefont
setfont
0.000000 0.171875 moveto
/minus glyphshow

/DejaVuSans-Oblique findfont
8.0 scalefont
setfont
6.703125 0.171875 moveto
/pi glyphshow

/DejaVuSans findfont
8.0 scalefont
setfont
11.519531 0.171875 moveto
/slash glyphshow

14.214844 0.171875 moveto
/four glyphshow


grestore
gsave
291.385000 186.705205 translate
0.000000 rotate
/DejaVuSans-Oblique findfont
13.0 scalefont
setfont
0.000000 0.515625 moveto
/U glyphshow

/DejaVuSans findfont
9.1 scalefont
setfont
9.515137 -1.617188 moveto
/one glyphshow


grestore
gsave
289.385000 176.606865 translate
0.000000 rotate
/DejaVuSans findfont
8.0 scalefont
setfont
0.000000 0.062500 moveto
/minus glyphshow

/DejaVuSans-Oblique findfont
8.0 scalefont
setfont
6.703125 0.062500 moveto
/pi glyphshow

/DejaVuSans findfont
8.0 scalefont
setfont
11.519531 0.062500 moveto
/slash glyphshow

14.214844 0.062500 moveto
/two glyphshow


grestore
gsave
333.343000 143.862862 translate
0.000000 rotate
/DejaVuSans-Oblique findfont
13.0 scalefont
setfont
0.000000 0.515625 moveto
/H glyphshow


grestore
gsave
330.343000 264.621205 translate
0.000000 rotate
/DejaVuSans-Oblique findfont
13.0 scalefont
setfont
0.000000 0.515625 moveto
/U glyphshow

/DejaVuSans findfont
9.1 scalefont
setfont
9.515137 -1.617188 moveto
/one glyphshow


grestore
gsave
328.343000 254.522865 translate
0.000000 rotate
/DejaVuSans findfont
8.0 scalefont
setfont
0.000000 0.171875 moveto
/minus glyphshow

/DejaVuSans-Oblique findfont
8.0 scalefont
setfont
6.703125 0.171875 moveto
/pi glyphshow

/DejaVuSans findfont
8.0 scalefont
setfont
11.519531 0.171875 moveto
/slash glyphshow

14.214844 0.171875 moveto
/four glyphshow


grestore
gsave
369.301000 225.663205 translate
0.000000 rotate
/DejaVuSans-Oblique findfont
13.0 scalefont
setfont
0.000000 0.515625 moveto
/U glyphshow

/DejaVuSans findfont
9.1 scalefont
setfont
9.515137 -1.617188 moveto
/one glyphshow


grestore
gsave
367.301000 215.564865 translate
0.000000 rotate
/DejaVuSans findfont
8.0 scalefont
setfont
0.000000 0.062500 moveto
/minus glyphshow

/DejaVuSans-Oblique findfont
8.0 scalefont
setfont
6.703125 0.062500 moveto
/pi glyphshow

/DejaVuSans findfont
8.0 scalefont
setfont
11.519531 0.062500 moveto
/slash glyphshow

14.214844 0.062500 moveto
/two glyphshow


grestore
/DejaVuSans findfont
10.400 scalefont
setfont
gsave
387.040500 36.626850 translate
0.000000 rotate
0.000000 0.000000 m /three glyphshow
grestore
gsave
411.259000 182.820862 translate
0.000000 rotate
/DejaVuSans-Oblique findfont
13.0 scalefont
setfont
0.000000 0.515625 moveto
/H glyphshow


grestore
gsave
408.259000 264.621205 translate
0.000000 rotate
/DejaVuSans-Oblique findfont
13.0 scalefont
setfont
0.000000 0.515625 moveto
/U glyphshow

/DejaVuSans findfont
9.1 scalefont
setfont
9.515137 -1.617188 moveto
/one glyphshow


grestore
gsave
406.259000 254.522865 translate
0.000000 rotate
/DejaVuSans findfont
8.0 scalefont
setfont
0.000000 0.062500 moveto
/minus glyphshow

/DejaVuSans-Oblique findfont
8.0 scalefont
setfont
6.703125 0.062500 moveto
/pi glyphshow

/DejaVuSans findfont
8.0 scalefont
setfont
11.519531 0.062500 moveto
/slash glyphshow

14.214844 0.062500 moveto
/two glyphshow


grestore
gsave
450.217000 221.778862 translate
0.000000 rotate
/DejaVuSans-Oblique findfont
13.0 scalefont
setfont
0.000000 0.515625 moveto
/H glyphshow


grestore
gsave
450.217000 260.736862 translate
0.000000 rotate
/DejaVuSans-Oblique findfont
13.0 scalefont
setfont
0.000000 0.515625 moveto
/H glyphshow


grestore
gsave
464.956500 36.626850 translate
0.000000 rotate
0.000000 0.000000 m /two glyphshow
grestore
gsave
503.914500 36.626850 translate
0.000000 rotate
0.000000 0.000000 m /zero glyphshow
grestore
gsave
542.872500 36.626850 translate
0.000000 rotate
0.000000 0.000000 m /one glyphshow
grestore
gsave
47.637000 260.463425 translate
0.000000 rotate
/DejaVuSans-Oblique findfont
16.25 scalefont
setfont
0.000000 0.906250 moveto
/q glyphshow

/DejaVuSans findfont
11.375 scalefont
setfont
10.314941 -1.760938 moveto
/zero glyphshow


grestore
gsave
47.637000 221.505425 translate
0.000000 rotate
/DejaVuSans-Oblique findfont
16.25 scalefont
setfont
0.000000 0.906250 moveto
/q glyphshow

/DejaVuSans findfont
11.375 scalefont
setfont
10.314941 -1.760938 moveto
/one glyphshow


grestore
gsave
47.637000 182.547425 translate
0.000000 rotate
/DejaVuSans-Oblique findfont
16.25 scalefont
setfont
0.000000 0.906250 moveto
/q glyphshow

/DejaVuSans findfont
11.375 scalefont
setfont
10.314941 -1.760938 moveto
/two glyphshow


grestore
gsave
47.637000 143.589425 translate
0.000000 rotate
/DejaVuSans-Oblique findfont
16.25 scalefont
setfont
0.000000 0.906250 moveto
/q glyphshow

/DejaVuSans findfont
11.375 scalefont
setfont
10.314941 -1.760938 moveto
/three glyphshow


grestore
gsave
47.637000 104.631425 translate
0.000000 rotate
/DejaVuSans-Oblique findfont
16.25 scalefont
setfont
0.000000 0.906250 moveto
/q glyphshow

/DejaVuSans findfont
11.375 scalefont
setfont
10.314941 -1.760938 moveto
/four glyphshow


grestore
gsave
47.637000 65.673425 translate
0.000000 rotate
/DejaVuSans-Oblique findfont
16.25 scalefont
setfont
0.000000 0.906250 moveto
/q glyphshow

/DejaVuSans findfont
11.375 scalefont
setfont
10.314941 -1.760938 moveto
/five glyphshow


grestore
gsave
104.595000 36.626850 translate
0.000000 rotate
0.000000 0.000000 m /four glyphshow
grestore
gsave
54.637000 25.199800 translate
0.000000 rotate
/DejaVuSans-Oblique findfont
19.5 scalefont
setfont
0.000000 0.078125 moveto
/c glyphshow


grestore

end
showpage
