%!PS-Adobe-3.0 EPSF-3.0
%%Title: h3.eps
%%Creator: matplotlib version 3.1.0, http://matplotlib.org/
%%CreationDate: Mon Dec  9 21:47:21 2019
%%Orientation: portrait
%%BoundingBox: 131.28060000000008 322.57140000000004 480.71939999999995 469.4286000000001
%%EndComments
%%BeginProlog
/mpldict 9 dict def
mpldict begin
/m { moveto } bind def
/l { lineto } bind def
/r { rlineto } bind def
/c { curveto } bind def
/cl { closepath } bind def
/box {
m
1 index 0 r
0 exch r
neg 0 r
cl
} bind def
/clipbox {
box
clip
newpath
} bind def
%!PS-Adobe-3.0 Resource-Font
%%Title: DejaVu Sans Oblique
%%Copyright: Copyright (c) 2003 by Bitstream, Inc. All Rights Reserved. Copyright (c) 2006 by Tavmjong Bah. All Rights Reserved. DejaVu changes are in public domain 
%%Creator: Converted from TrueType to type 3 by PPR
25 dict begin
/_d{bind def}bind def
/_m{moveto}_d
/_l{lineto}_d
/_cl{closepath eofill}_d
/_c{curveto}_d
/_sc{7 -1 roll{setcachedevice}{pop pop pop pop pop pop}ifelse}_d
/_e{exec}_d
/FontName /DejaVuSans-Oblique def
/PaintType 0 def
/FontMatrix[.001 0 0 .001 0 0]def
/FontBBox[-1016 -350 1659 1068]def
/FontType 3 def
/Encoding [ /R /X /q /y /pi ] def
/FontInfo 10 dict dup begin
/FamilyName (DejaVu Sans) def
/FullName (DejaVu Sans Oblique) def
/Notice (Copyright (c) 2003 by Bitstream, Inc. All Rights Reserved. Copyright (c) 2006 by Tavmjong Bah. All Rights Reserved. DejaVu changes are in public domain ) def
/Weight (Oblique) def
/Version (Version 2.35) def
/ItalicAngle -11.0 def
/isFixedPitch false def
/UnderlinePosition -130 def
/UnderlineThickness 90 def
end readonly def
/CharStrings 6 dict dup begin
/.notdef 0 def
/R{{695 0 27 0 600 729 _sc
252 648 _m
202 389 _l
329 389 _l
379 389 419 402 450 430 _c
480 458 496 494 496 538 _c
496 573 485 600 465 619 _c
444 638 414 648 376 648 _c
252 648 _l
433 350 _m
453 345 471 333 485 314 _c
499 294 515 256 533 199 _c
595 0 _l
491 0 _l
434 187 _l
419 235 402 267 383 283 _c
363 299 334 308 295 308 _c
186 308 _l
126 0 _l
27 0 _l
169 729 _l
}_e{391 729 _l
458 729 510 713 546 683 _c
582 653 600 609 600 552 _c
600 501 584 457 554 420 _c
523 382 483 359 433 350 _c
_cl}_e}_d
/X{685 0 -42 0 703 729 _sc
137 729 _m
237 729 _l
362 466 _l
588 729 _l
703 729 _l
403 381 _l
584 0 _l
485 0 _l
338 307 _l
72 0 _l
-42 0 _l
298 392 _l
137 729 _l
_cl}_d
/q{{635 0 46 -205 597 560 _sc
417 82 _m
393 50 364 27 332 11 _c
299 -5 263 -13 223 -13 _c
167 -13 124 5 93 42 _c
61 79 46 130 46 196 _c
46 248 55 299 75 348 _c
94 397 122 441 158 481 _c
181 506 208 525 239 539 _c
269 553 301 560 335 560 _c
375 560 409 552 435 536 _c
461 520 479 496 491 464 _c
507 546 _l
597 546 _l
451 -205 _l
361 -205 _l
417 82 _l
139 209 _m
}_e{139 161 149 124 169 99 _c
189 73 219 61 257 61 _c
313 61 362 88 402 142 _c
442 196 462 262 462 340 _c
462 386 451 422 431 447 _c
410 472 380 485 342 485 _c
313 485 287 478 263 465 _c
239 451 218 432 200 407 _c
181 380 166 349 155 313 _c
144 277 139 243 139 209 _c
_cl}_e}_d
/y{592 0 -24 -207 603 547 _sc
248 -50 _m
206 -120 172 -163 146 -181 _c
120 -198 86 -207 46 -207 _c
-24 -207 _l
-9 -132 _l
42 -132 _l
67 -132 88 -125 106 -111 _c
123 -97 143 -71 165 -31 _c
193 20 _l
72 547 _l
167 547 _l
258 128 _l
509 547 _l
603 547 _l
248 -50 _l
_cl}_d
/pi{{602 0 55 -18 615 547 _sc
91 547 _m
615 547 _l
598 457 _l
529 457 _l
463 121 _l
459 97 460 80 466 70 _c
472 60 483 55 501 55 _c
506 55 512 55 520 57 _c
527 57 532 58 534 58 _c
521 -6 _l
509 -10 497 -13 485 -15 _c
472 -17 460 -18 448 -18 _c
408 -18 383 -7 373 13 _c
362 34 362 73 374 131 _c
437 457 _l
235 457 _l
146 0 _l
55 0 _l
144 457 _l
74 457 _l
}_e{91 547 _l
_cl}_e}_d
end readonly def

/BuildGlyph
 {exch begin
 CharStrings exch
 2 copy known not{pop /.notdef}if
 true 3 1 roll get exec
 end}_d

/BuildChar {
 1 index /Encoding get exch get
 1 index /BuildGlyph get exec
}_d

FontName currentdict end definefont pop
%!PS-Adobe-3.0 Resource-Font
%%Title: DejaVu Sans
%%Copyright: Copyright (c) 2003 by Bitstream, Inc. All Rights Reserved. Copyright (c) 2006 by Tavmjong Bah. All Rights Reserved. DejaVu changes are in public domain 
%%Creator: Converted from TrueType to type 3 by PPR
25 dict begin
/_d{bind def}bind def
/_m{moveto}_d
/_l{lineto}_d
/_cl{closepath eofill}_d
/_c{curveto}_d
/_sc{7 -1 roll{setcachedevice}{pop pop pop pop pop pop}ifelse}_d
/_e{exec}_d
/FontName /DejaVuSans def
/PaintType 0 def
/FontMatrix[.001 0 0 .001 0 0]def
/FontBBox[-1021 -463 1793 1232]def
/FontType 3 def
/Encoding [ /parenleft /parenright /slash /zero /one /two /three /six /minus ] def
/FontInfo 10 dict dup begin
/FamilyName (DejaVu Sans) def
/FullName (DejaVu Sans) def
/Notice (Copyright (c) 2003 by Bitstream, Inc. All Rights Reserved. Copyright (c) 2006 by Tavmjong Bah. All Rights Reserved. DejaVu changes are in public domain ) def
/Weight (Book) def
/Version (Version 2.35) def
/ItalicAngle 0.0 def
/isFixedPitch false def
/UnderlinePosition -130 def
/UnderlineThickness 90 def
end readonly def
/CharStrings 10 dict dup begin
/.notdef 0 def
/parenleft{390 0 86 -131 310 759 _sc
310 759 _m
266 683 234 609 213 536 _c
191 463 181 389 181 314 _c
181 238 191 164 213 91 _c
234 17 266 -56 310 -131 _c
232 -131 _l
183 -54 146 20 122 94 _c
98 168 86 241 86 314 _c
86 386 98 459 122 533 _c
146 607 182 682 232 759 _c
310 759 _l
_cl}_d
/parenright{390 0 80 -131 304 759 _sc
80 759 _m
158 759 _l
206 682 243 607 267 533 _c
291 459 304 386 304 314 _c
304 241 291 168 267 94 _c
243 20 206 -54 158 -131 _c
80 -131 _l
123 -56 155 17 177 91 _c
198 164 209 238 209 314 _c
209 389 198 463 177 536 _c
155 609 123 683 80 759 _c
_cl}_d
/slash{337 0 0 -92 337 729 _sc
254 729 _m
337 729 _l
83 -92 _l
0 -92 _l
254 729 _l
_cl}_d
/zero{636 0 66 -13 570 742 _sc
318 664 _m
267 664 229 639 203 589 _c
177 539 165 464 165 364 _c
165 264 177 189 203 139 _c
229 89 267 64 318 64 _c
369 64 407 89 433 139 _c
458 189 471 264 471 364 _c
471 464 458 539 433 589 _c
407 639 369 664 318 664 _c
318 742 _m
399 742 461 709 505 645 _c
548 580 570 486 570 364 _c
570 241 548 147 505 83 _c
461 19 399 -13 318 -13 _c
236 -13 173 19 130 83 _c
87 147 66 241 66 364 _c
66 486 87 580 130 645 _c
173 709 236 742 318 742 _c
_cl}_d
/one{636 0 110 0 544 729 _sc
124 83 _m
285 83 _l
285 639 _l
110 604 _l
110 694 _l
284 729 _l
383 729 _l
383 83 _l
544 83 _l
544 0 _l
124 0 _l
124 83 _l
_cl}_d
/two{{636 0 73 0 536 742 _sc
192 83 _m
536 83 _l
536 0 _l
73 0 _l
73 83 _l
110 121 161 173 226 239 _c
290 304 331 346 348 365 _c
380 400 402 430 414 455 _c
426 479 433 504 433 528 _c
433 566 419 598 392 622 _c
365 646 330 659 286 659 _c
255 659 222 653 188 643 _c
154 632 117 616 78 594 _c
78 694 _l
118 710 155 722 189 730 _c
223 738 255 742 284 742 _c
}_e{359 742 419 723 464 685 _c
509 647 532 597 532 534 _c
532 504 526 475 515 449 _c
504 422 484 390 454 354 _c
446 344 420 317 376 272 _c
332 227 271 164 192 83 _c
_cl}_e}_d
/three{{636 0 76 -13 556 742 _sc
406 393 _m
453 383 490 362 516 330 _c
542 298 556 258 556 212 _c
556 140 531 84 482 45 _c
432 6 362 -13 271 -13 _c
240 -13 208 -10 176 -4 _c
144 1 110 10 76 22 _c
76 117 _l
103 101 133 89 166 81 _c
198 73 232 69 268 69 _c
330 69 377 81 409 105 _c
441 129 458 165 458 212 _c
458 254 443 288 413 312 _c
383 336 341 349 287 349 _c
}_e{202 349 _l
202 430 _l
291 430 _l
339 430 376 439 402 459 _c
428 478 441 506 441 543 _c
441 580 427 609 401 629 _c
374 649 336 659 287 659 _c
260 659 231 656 200 650 _c
169 644 135 635 98 623 _c
98 711 _l
135 721 170 729 203 734 _c
235 739 266 742 296 742 _c
370 742 429 725 473 691 _c
517 657 539 611 539 553 _c
539 513 527 479 504 451 _c
481 423 448 403 406 393 _c
_cl}_e}_d
/six{{636 0 70 -13 573 742 _sc
330 404 _m
286 404 251 388 225 358 _c
199 328 186 286 186 234 _c
186 181 199 139 225 109 _c
251 79 286 64 330 64 _c
374 64 409 79 435 109 _c
461 139 474 181 474 234 _c
474 286 461 328 435 358 _c
409 388 374 404 330 404 _c
526 713 _m
526 623 _l
501 635 476 644 451 650 _c
425 656 400 659 376 659 _c
310 659 260 637 226 593 _c
}_e{192 549 172 482 168 394 _c
187 422 211 444 240 459 _c
269 474 301 482 336 482 _c
409 482 467 459 509 415 _c
551 371 573 310 573 234 _c
573 159 550 99 506 54 _c
462 9 403 -13 330 -13 _c
246 -13 181 19 137 83 _c
92 147 70 241 70 364 _c
70 479 97 571 152 639 _c
206 707 280 742 372 742 _c
396 742 421 739 447 735 _c
472 730 498 723 526 713 _c
_cl}_e}_d
/minus{838 0 106 272 732 355 _sc
106 355 _m
732 355 _l
732 272 _l
106 272 _l
106 355 _l
_cl}_d
end readonly def

/BuildGlyph
 {exch begin
 CharStrings exch
 2 copy known not{pop /.notdef}if
 true 3 1 roll get exec
 end}_d

/BuildChar {
 1 index /Encoding get exch get
 1 index /BuildGlyph get exec
}_d

FontName currentdict end definefont pop
end
%%EndProlog
mpldict begin
131.281 322.571 translate
349.439 146.857 0 0 clipbox
gsave
0 -0 m
349.4388 -0 l
349.4388 146.8572 l
0 146.8572 l
cl
1.000 setgray
fill
grestore
2.000 setlinewidth
1 setlinejoin
2 setlinecap
[] 0 setdash
0.000 setgray
gsave
335 132.5 7.2 7.2 clipbox
85.116 108.4908 m
338.343 108.4908 l
stroke
grestore
gsave
335 132.5 7.2 7.2 clipbox
85.116 69.5328 m
338.343 69.5328 l
stroke
grestore
gsave
335 132.5 7.2 7.2 clipbox
85.116 30.5748 m
338.343 30.5748 l
stroke
grestore
0.435 0.643 1.000 setrgbcolor
gsave
335 132.5 7.2 7.2 clipbox
143.553 30.5748 m
143.553 108.4908 l
stroke
grestore
gsave
335 132.5 7.2 7.2 clipbox
182.511 69.5328 m
182.511 108.4908 l
stroke
grestore
gsave
335 132.5 7.2 7.2 clipbox
260.427 69.5328 m
260.427 108.4908 l
stroke
grestore
gsave
335 132.5 7.2 7.2 clipbox
299.385 30.5748 m
299.385 108.4908 l
stroke
grestore
gsave
335 132.5 7.2 7.2 clipbox
91.93365 95.82945 m
117.25635 95.82945 l
117.25635 121.15215 l
91.93365 121.15215 l
cl
0.020 0.729 0.714 setrgbcolor
fill
grestore
gsave
335 132.5 7.2 7.2 clipbox
91.93365 56.87145 m
117.25635 56.87145 l
117.25635 82.19415 l
91.93365 82.19415 l
cl
0.733 0.545 1.000 setrgbcolor
fill
grestore
gsave
335 132.5 7.2 7.2 clipbox
91.93365 17.91345 m
117.25635 17.91345 l
117.25635 43.23615 l
91.93365 43.23615 l
cl
0.733 0.545 1.000 setrgbcolor
fill
grestore
1.500 setlinewidth
0 setlinejoin
0 setlinecap
[] 0 setdash
gsave
335 132.5 7.2 7.2 clipbox
143.553 26.776395 m
144.560349 26.776395 145.526575 27.176619 146.238878 27.888922 c
146.951181 28.601225 147.351405 29.567451 147.351405 30.5748 c
147.351405 31.582149 146.951181 32.548375 146.238878 33.260678 c
145.526575 33.972981 144.560349 34.373205 143.553 34.373205 c
142.545651 34.373205 141.579425 33.972981 140.867122 33.260678 c
140.154819 32.548375 139.754595 31.582149 139.754595 30.5748 c
139.754595 29.567451 140.154819 28.601225 140.867122 27.888922 c
141.579425 27.176619 142.545651 26.776395 143.553 26.776395 c
cl
gsave
fill
grestore
stroke
grestore
2.000 setlinewidth
gsave
335 132.5 7.2 7.2 clipbox
143.553 99.627855 m
145.90348 99.627855 148.158008 100.561711 149.820049 102.223751 c
151.482089 103.885792 152.415945 106.14032 152.415945 108.4908 c
152.415945 110.84128 151.482089 113.095808 149.820049 114.757849 c
148.158008 116.419889 145.90348 117.353745 143.553 117.353745 c
141.20252 117.353745 138.947992 116.419889 137.285951 114.757849 c
135.623911 113.095808 134.690055 110.84128 134.690055 108.4908 c
134.690055 106.14032 135.623911 103.885792 137.285951 102.223751 c
138.947992 100.561711 141.20252 99.627855 143.553 99.627855 c
cl
gsave
fill
grestore
stroke
grestore
1.500 setlinewidth
gsave
335 132.5 7.2 7.2 clipbox
182.511 104.692395 m
183.518349 104.692395 184.484575 105.092619 185.196878 105.804922 c
185.909181 106.517225 186.309405 107.483451 186.309405 108.4908 c
186.309405 109.498149 185.909181 110.464375 185.196878 111.176678 c
184.484575 111.888981 183.518349 112.289205 182.511 112.289205 c
181.503651 112.289205 180.537425 111.888981 179.825122 111.176678 c
179.112819 110.464375 178.712595 109.498149 178.712595 108.4908 c
178.712595 107.483451 179.112819 106.517225 179.825122 105.804922 c
180.537425 105.092619 181.503651 104.692395 182.511 104.692395 c
cl
gsave
fill
grestore
stroke
grestore
2.000 setlinewidth
gsave
335 132.5 7.2 7.2 clipbox
182.511 60.669855 m
184.86148 60.669855 187.116008 61.603711 188.778049 63.265751 c
190.440089 64.927792 191.373945 67.18232 191.373945 69.5328 c
191.373945 71.88328 190.440089 74.137808 188.778049 75.799849 c
187.116008 77.461889 184.86148 78.395745 182.511 78.395745 c
180.16052 78.395745 177.905992 77.461889 176.243951 75.799849 c
174.581911 74.137808 173.648055 71.88328 173.648055 69.5328 c
173.648055 67.18232 174.581911 64.927792 176.243951 63.265751 c
177.905992 61.603711 180.16052 60.669855 182.511 60.669855 c
cl
gsave
fill
grestore
stroke
grestore
gsave
335 132.5 7.2 7.2 clipbox
208.80765 56.87145 m
234.13035 56.87145 l
234.13035 82.19415 l
208.80765 82.19415 l
cl
0.733 0.545 1.000 setrgbcolor
fill
grestore
1.500 setlinewidth
gsave
335 132.5 7.2 7.2 clipbox
260.427 104.692395 m
261.434349 104.692395 262.400575 105.092619 263.112878 105.804922 c
263.825181 106.517225 264.225405 107.483451 264.225405 108.4908 c
264.225405 109.498149 263.825181 110.464375 263.112878 111.176678 c
262.400575 111.888981 261.434349 112.289205 260.427 112.289205 c
259.419651 112.289205 258.453425 111.888981 257.741122 111.176678 c
257.028819 110.464375 256.628595 109.498149 256.628595 108.4908 c
256.628595 107.483451 257.028819 106.517225 257.741122 105.804922 c
258.453425 105.092619 259.419651 104.692395 260.427 104.692395 c
cl
gsave
fill
grestore
stroke
grestore
2.000 setlinewidth
gsave
335 132.5 7.2 7.2 clipbox
260.427 60.669855 m
262.77748 60.669855 265.032008 61.603711 266.694049 63.265751 c
268.356089 64.927792 269.289945 67.18232 269.289945 69.5328 c
269.289945 71.88328 268.356089 74.137808 266.694049 75.799849 c
265.032008 77.461889 262.77748 78.395745 260.427 78.395745 c
258.07652 78.395745 255.821992 77.461889 254.159951 75.799849 c
252.497911 74.137808 251.564055 71.88328 251.564055 69.5328 c
251.564055 67.18232 252.497911 64.927792 254.159951 63.265751 c
255.821992 61.603711 258.07652 60.669855 260.427 60.669855 c
cl
gsave
fill
grestore
stroke
grestore
1.500 setlinewidth
gsave
335 132.5 7.2 7.2 clipbox
299.385 26.776395 m
300.392349 26.776395 301.358575 27.176619 302.070878 27.888922 c
302.783181 28.601225 303.183405 29.567451 303.183405 30.5748 c
303.183405 31.582149 302.783181 32.548375 302.070878 33.260678 c
301.358575 33.972981 300.392349 34.373205 299.385 34.373205 c
298.377651 34.373205 297.411425 33.972981 296.699122 33.260678 c
295.986819 32.548375 295.586595 31.582149 295.586595 30.5748 c
295.586595 29.567451 295.986819 28.601225 296.699122 27.888922 c
297.411425 27.176619 298.377651 26.776395 299.385 26.776395 c
cl
gsave
fill
grestore
stroke
grestore
2.000 setlinewidth
gsave
335 132.5 7.2 7.2 clipbox
299.385 99.627855 m
301.73548 99.627855 303.990008 100.561711 305.652049 102.223751 c
307.314089 103.885792 308.247945 106.14032 308.247945 108.4908 c
308.247945 110.84128 307.314089 113.095808 305.652049 114.757849 c
303.990008 116.419889 301.73548 117.353745 299.385 117.353745 c
297.03452 117.353745 294.779992 116.419889 293.117951 114.757849 c
291.455911 113.095808 290.522055 110.84128 290.522055 108.4908 c
290.522055 106.14032 291.455911 103.885792 293.117951 102.223751 c
294.779992 100.561711 297.03452 99.627855 299.385 99.627855 c
cl
gsave
fill
grestore
stroke
grestore
1 setlinejoin
2 setlinecap
[] 0 setdash
1.000 setgray
gsave
335 132.5 7.2 7.2 clipbox
143.553 103.42626 m
143.553 113.55534 l
stroke
grestore
gsave
335 132.5 7.2 7.2 clipbox
138.48846 108.4908 m
148.61754 108.4908 l
stroke
grestore
gsave
335 132.5 7.2 7.2 clipbox
182.511 64.46826 m
182.511 74.59734 l
stroke
grestore
gsave
335 132.5 7.2 7.2 clipbox
177.44646 69.5328 m
187.57554 69.5328 l
stroke
grestore
gsave
335 132.5 7.2 7.2 clipbox
260.427 64.46826 m
260.427 74.59734 l
stroke
grestore
gsave
335 132.5 7.2 7.2 clipbox
255.36246 69.5328 m
265.49154 69.5328 l
stroke
grestore
gsave
335 132.5 7.2 7.2 clipbox
299.385 103.42626 m
299.385 113.55534 l
stroke
grestore
gsave
335 132.5 7.2 7.2 clipbox
294.32046 108.4908 m
304.44954 108.4908 l
stroke
grestore
0.000 setgray
gsave
100.095000 104.904863 translate
0.000000 rotate
/DejaVuSans-Oblique findfont
13.0 scalefont
setfont
0.000000 0.515625 moveto
/X glyphshow


grestore
gsave
97.095000 70.831205 translate
0.000000 rotate
/DejaVuSans-Oblique findfont
13.0 scalefont
setfont
0.000000 0.515625 moveto
/R glyphshow

/DejaVuSans-Oblique findfont
9.1 scalefont
setfont
9.032715 -1.617188 moveto
/y glyphshow


grestore
gsave
95.095000 59.435990 translate
0.000000 rotate
/DejaVuSans findfont
8.0 scalefont
setfont
0.000000 0.921875 moveto
/parenleft glyphshow

/DejaVuSans-Oblique findfont
8.0 scalefont
setfont
3.121094 0.921875 moveto
/pi glyphshow

/DejaVuSans findfont
8.0 scalefont
setfont
7.937500 0.921875 moveto
/slash glyphshow

10.632812 0.921875 moveto
/three glyphshow

15.722656 0.921875 moveto
/parenright glyphshow


grestore
gsave
97.095000 31.873205 translate
0.000000 rotate
/DejaVuSans-Oblique findfont
13.0 scalefont
setfont
0.000000 0.515625 moveto
/R glyphshow

/DejaVuSans-Oblique findfont
9.1 scalefont
setfont
9.032715 -1.617188 moveto
/y glyphshow


grestore
gsave
95.095000 20.477990 translate
0.000000 rotate
/DejaVuSans findfont
8.0 scalefont
setfont
0.000000 0.921875 moveto
/parenleft glyphshow

/DejaVuSans-Oblique findfont
8.0 scalefont
setfont
3.121094 0.921875 moveto
/pi glyphshow

/DejaVuSans findfont
8.0 scalefont
setfont
7.937500 0.921875 moveto
/slash glyphshow

10.632812 0.921875 moveto
/six glyphshow

15.722656 0.921875 moveto
/parenright glyphshow


grestore
gsave
213.969000 70.831205 translate
0.000000 rotate
/DejaVuSans-Oblique findfont
13.0 scalefont
setfont
0.000000 0.515625 moveto
/R glyphshow

/DejaVuSans-Oblique findfont
9.1 scalefont
setfont
9.032715 -1.617188 moveto
/y glyphshow


grestore
gsave
208.469000 59.435990 translate
0.000000 rotate
/DejaVuSans findfont
8.0 scalefont
setfont
0.000000 0.921875 moveto
/parenleft glyphshow

3.121094 0.921875 moveto
/minus glyphshow

/DejaVuSans-Oblique findfont
8.0 scalefont
setfont
9.824219 0.921875 moveto
/pi glyphshow

/DejaVuSans findfont
8.0 scalefont
setfont
14.640625 0.921875 moveto
/slash glyphshow

17.335938 0.921875 moveto
/three glyphshow

22.425781 0.921875 moveto
/parenright glyphshow


grestore
gsave
47.637000 104.631425 translate
0.000000 rotate
/DejaVuSans-Oblique findfont
16.25 scalefont
setfont
0.000000 0.906250 moveto
/q glyphshow

/DejaVuSans findfont
11.375 scalefont
setfont
10.314941 -1.760938 moveto
/zero glyphshow


grestore
gsave
47.637000 65.673425 translate
0.000000 rotate
/DejaVuSans-Oblique findfont
16.25 scalefont
setfont
0.000000 0.906250 moveto
/q glyphshow

/DejaVuSans findfont
11.375 scalefont
setfont
10.314941 -1.760938 moveto
/one glyphshow


grestore
gsave
47.637000 26.715425 translate
0.000000 rotate
/DejaVuSans-Oblique findfont
16.25 scalefont
setfont
0.000000 0.906250 moveto
/q glyphshow

/DejaVuSans findfont
11.375 scalefont
setfont
10.314941 -1.760938 moveto
/two glyphshow


grestore

end
showpage
