%!PS-Adobe-3.0 EPSF-3.0
%%Title: qft.eps
%%Creator: matplotlib version 3.1.0, http://matplotlib.org/
%%CreationDate: Sat Dec  7 22:45:24 2019
%%Orientation: portrait
%%BoundingBox: 33.885600000000025 303.09240000000005 578.1144 488.9076
%%EndComments
%%BeginProlog
/mpldict 9 dict def
mpldict begin
/m { moveto } bind def
/l { lineto } bind def
/r { rlineto } bind def
/c { curveto } bind def
/cl { closepath } bind def
/box {
m
1 index 0 r
0 exch r
neg 0 r
cl
} bind def
/clipbox {
box
clip
newpath
} bind def
%!PS-Adobe-3.0 Resource-Font
%%Title: DejaVu Sans Oblique
%%Copyright: Copyright (c) 2003 by Bitstream, Inc. All Rights Reserved. Copyright (c) 2006 by Tavmjong Bah. All Rights Reserved. DejaVu changes are in public domain 
%%Creator: Converted from TrueType to type 3 by PPR
25 dict begin
/_d{bind def}bind def
/_m{moveto}_d
/_l{lineto}_d
/_cl{closepath eofill}_d
/_c{curveto}_d
/_sc{7 -1 roll{setcachedevice}{pop pop pop pop pop pop}ifelse}_d
/_e{exec}_d
/FontName /DejaVuSans-Oblique def
/PaintType 0 def
/FontMatrix[.001 0 0 .001 0 0]def
/FontBBox[-1016 -350 1659 1068]def
/FontType 3 def
/Encoding [ /H /U /c /x /pi ] def
/FontInfo 10 dict dup begin
/FamilyName (DejaVu Sans) def
/FullName (DejaVu Sans Oblique) def
/Notice (Copyright (c) 2003 by Bitstream, Inc. All Rights Reserved. Copyright (c) 2006 by Tavmjong Bah. All Rights Reserved. DejaVu changes are in public domain ) def
/Weight (Oblique) def
/Version (Version 2.35) def
/ItalicAngle -11.0 def
/isFixedPitch false def
/UnderlinePosition -130 def
/UnderlineThickness 90 def
end readonly def
/CharStrings 6 dict dup begin
/.notdef 0 def
/H{752 0 27 0 725 729 _sc
169 729 _m
268 729 _l
210 430 _l
568 430 _l
626 729 _l
725 729 _l
583 0 _l
484 0 _l
552 347 _l
194 347 _l
126 0 _l
27 0 _l
169 729 _l
_cl}_d
/U{732 0 58 -13 713 729 _sc
155 729 _m
254 729 _l
168 286 _l
164 266 162 249 160 237 _c
158 224 158 213 158 203 _c
158 158 170 124 195 101 _c
220 77 257 66 306 66 _c
368 66 417 83 452 117 _c
487 151 512 208 528 286 _c
614 729 _l
713 729 _l
625 274 _l
605 175 569 102 515 56 _c
461 10 388 -13 295 -13 _c
222 -13 164 5 122 41 _c
79 77 58 127 58 190 _c
58 201 58 214 60 228 _c
62 242 64 258 68 274 _c
155 729 _l
_cl}_d
/c{{550 0 46 -13 536 560 _sc
536 526 _m
518 437 _l
496 452 473 464 449 472 _c
425 480 400 484 374 484 _c
345 484 318 479 292 469 _c
266 459 244 444 227 426 _c
199 397 177 364 162 326 _c
146 288 139 248 139 208 _c
139 158 151 122 176 98 _c
200 74 238 62 288 62 _c
312 62 339 65 367 73 _c
395 80 424 91 454 107 _c
437 18 _l
411 7 384 0 356 -5 _c
}_e{328 -10 300 -13 272 -13 _c
199 -13 143 5 104 41 _c
65 77 46 128 46 196 _c
46 252 56 304 76 352 _c
96 400 127 443 167 481 _c
194 507 226 526 263 540 _c
299 553 340 560 384 560 _c
409 560 434 557 459 551 _c
484 545 510 537 536 526 _c
_cl}_e}_d
/x{592 0 -25 0 600 547 _sc
600 547 _m
349 279 _l
503 0 _l
400 0 _l
284 217 _l
83 0 _l
-25 0 _l
243 288 _l
100 547 _l
203 547 _l
308 349 _l
491 547 _l
600 547 _l
_cl}_d
/pi{{602 0 55 -18 615 547 _sc
91 547 _m
615 547 _l
598 457 _l
529 457 _l
463 121 _l
459 97 460 80 466 70 _c
472 60 483 55 501 55 _c
506 55 512 55 520 57 _c
527 57 532 58 534 58 _c
521 -6 _l
509 -10 497 -13 485 -15 _c
472 -17 460 -18 448 -18 _c
408 -18 383 -7 373 13 _c
362 34 362 73 374 131 _c
437 457 _l
235 457 _l
146 0 _l
55 0 _l
144 457 _l
74 457 _l
}_e{91 547 _l
_cl}_e}_d
end readonly def

/BuildGlyph
 {exch begin
 CharStrings exch
 2 copy known not{pop /.notdef}if
 true 3 1 roll get exec
 end}_d

/BuildChar {
 1 index /Encoding get exch get
 1 index /BuildGlyph get exec
}_d

FontName currentdict end definefont pop
%!PS-Adobe-3.0 Resource-Font
%%Title: DejaVu Sans
%%Copyright: Copyright (c) 2003 by Bitstream, Inc. All Rights Reserved. Copyright (c) 2006 by Tavmjong Bah. All Rights Reserved. DejaVu changes are in public domain 
%%Creator: Converted from TrueType to type 3 by PPR
25 dict begin
/_d{bind def}bind def
/_m{moveto}_d
/_l{lineto}_d
/_cl{closepath eofill}_d
/_c{curveto}_d
/_sc{7 -1 roll{setcachedevice}{pop pop pop pop pop pop}ifelse}_d
/_e{exec}_d
/FontName /DejaVuSans def
/PaintType 0 def
/FontMatrix[.001 0 0 .001 0 0]def
/FontBBox[-1021 -463 1793 1232]def
/FontType 3 def
/Encoding [ /parenleft /parenright /slash /zero /one /two /three /four /minus ] def
/FontInfo 10 dict dup begin
/FamilyName (DejaVu Sans) def
/FullName (DejaVu Sans) def
/Notice (Copyright (c) 2003 by Bitstream, Inc. All Rights Reserved. Copyright (c) 2006 by Tavmjong Bah. All Rights Reserved. DejaVu changes are in public domain ) def
/Weight (Book) def
/Version (Version 2.35) def
/ItalicAngle 0.0 def
/isFixedPitch false def
/UnderlinePosition -130 def
/UnderlineThickness 90 def
end readonly def
/CharStrings 10 dict dup begin
/.notdef 0 def
/parenleft{390 0 86 -131 310 759 _sc
310 759 _m
266 683 234 609 213 536 _c
191 463 181 389 181 314 _c
181 238 191 164 213 91 _c
234 17 266 -56 310 -131 _c
232 -131 _l
183 -54 146 20 122 94 _c
98 168 86 241 86 314 _c
86 386 98 459 122 533 _c
146 607 182 682 232 759 _c
310 759 _l
_cl}_d
/parenright{390 0 80 -131 304 759 _sc
80 759 _m
158 759 _l
206 682 243 607 267 533 _c
291 459 304 386 304 314 _c
304 241 291 168 267 94 _c
243 20 206 -54 158 -131 _c
80 -131 _l
123 -56 155 17 177 91 _c
198 164 209 238 209 314 _c
209 389 198 463 177 536 _c
155 609 123 683 80 759 _c
_cl}_d
/slash{337 0 0 -92 337 729 _sc
254 729 _m
337 729 _l
83 -92 _l
0 -92 _l
254 729 _l
_cl}_d
/zero{636 0 66 -13 570 742 _sc
318 664 _m
267 664 229 639 203 589 _c
177 539 165 464 165 364 _c
165 264 177 189 203 139 _c
229 89 267 64 318 64 _c
369 64 407 89 433 139 _c
458 189 471 264 471 364 _c
471 464 458 539 433 589 _c
407 639 369 664 318 664 _c
318 742 _m
399 742 461 709 505 645 _c
548 580 570 486 570 364 _c
570 241 548 147 505 83 _c
461 19 399 -13 318 -13 _c
236 -13 173 19 130 83 _c
87 147 66 241 66 364 _c
66 486 87 580 130 645 _c
173 709 236 742 318 742 _c
_cl}_d
/one{636 0 110 0 544 729 _sc
124 83 _m
285 83 _l
285 639 _l
110 604 _l
110 694 _l
284 729 _l
383 729 _l
383 83 _l
544 83 _l
544 0 _l
124 0 _l
124 83 _l
_cl}_d
/two{{636 0 73 0 536 742 _sc
192 83 _m
536 83 _l
536 0 _l
73 0 _l
73 83 _l
110 121 161 173 226 239 _c
290 304 331 346 348 365 _c
380 400 402 430 414 455 _c
426 479 433 504 433 528 _c
433 566 419 598 392 622 _c
365 646 330 659 286 659 _c
255 659 222 653 188 643 _c
154 632 117 616 78 594 _c
78 694 _l
118 710 155 722 189 730 _c
223 738 255 742 284 742 _c
}_e{359 742 419 723 464 685 _c
509 647 532 597 532 534 _c
532 504 526 475 515 449 _c
504 422 484 390 454 354 _c
446 344 420 317 376 272 _c
332 227 271 164 192 83 _c
_cl}_e}_d
/three{{636 0 76 -13 556 742 _sc
406 393 _m
453 383 490 362 516 330 _c
542 298 556 258 556 212 _c
556 140 531 84 482 45 _c
432 6 362 -13 271 -13 _c
240 -13 208 -10 176 -4 _c
144 1 110 10 76 22 _c
76 117 _l
103 101 133 89 166 81 _c
198 73 232 69 268 69 _c
330 69 377 81 409 105 _c
441 129 458 165 458 212 _c
458 254 443 288 413 312 _c
383 336 341 349 287 349 _c
}_e{202 349 _l
202 430 _l
291 430 _l
339 430 376 439 402 459 _c
428 478 441 506 441 543 _c
441 580 427 609 401 629 _c
374 649 336 659 287 659 _c
260 659 231 656 200 650 _c
169 644 135 635 98 623 _c
98 711 _l
135 721 170 729 203 734 _c
235 739 266 742 296 742 _c
370 742 429 725 473 691 _c
517 657 539 611 539 553 _c
539 513 527 479 504 451 _c
481 423 448 403 406 393 _c
_cl}_e}_d
/four{636 0 49 0 580 729 _sc
378 643 _m
129 254 _l
378 254 _l
378 643 _l
352 729 _m
476 729 _l
476 254 _l
580 254 _l
580 172 _l
476 172 _l
476 0 _l
378 0 _l
378 172 _l
49 172 _l
49 267 _l
352 729 _l
_cl}_d
/minus{838 0 106 272 732 355 _sc
106 355 _m
732 355 _l
732 272 _l
106 272 _l
106 355 _l
_cl}_d
end readonly def

/BuildGlyph
 {exch begin
 CharStrings exch
 2 copy known not{pop /.notdef}if
 true 3 1 roll get exec
 end}_d

/BuildChar {
 1 index /Encoding get exch get
 1 index /BuildGlyph get exec
}_d

FontName currentdict end definefont pop
end
%%EndProlog
mpldict begin
33.886 303.092 translate
544.229 185.815 0 0 clipbox
gsave
0 0 m
544.2288 0 l
544.2288 185.8152 l
0 185.8152 l
cl
1.000 setgray
fill
grestore
gsave
529.8 171.4 7.2 7.2 clipbox
411.19446 39.437745 m
421.32354 39.437745 l
416.259 30.5748 l
cl
0.467 0.533 0.600 setrgbcolor
fill
grestore
gsave
529.8 171.4 7.2 7.2 clipbox
450.15246 39.437745 m
460.28154 39.437745 l
455.217 30.5748 l
cl
0.467 0.533 0.600 setrgbcolor
fill
grestore
gsave
529.8 171.4 7.2 7.2 clipbox
489.11046 39.437745 m
499.23954 39.437745 l
494.175 30.5748 l
cl
0.467 0.533 0.600 setrgbcolor
fill
grestore
2.000 setlinewidth
1 setlinejoin
2 setlinecap
[] 0 setdash
0.000 setgray
gsave
529.8 171.4 7.2 7.2 clipbox
85.116 147.4488 m
533.133 147.4488 l
stroke
grestore
gsave
529.8 171.4 7.2 7.2 clipbox
85.116 108.4908 m
533.133 108.4908 l
stroke
grestore
gsave
529.8 171.4 7.2 7.2 clipbox
85.116 69.5328 m
533.133 69.5328 l
stroke
grestore
0.467 0.533 0.600 setrgbcolor
gsave
529.8 171.4 7.2 7.2 clipbox
85.116 31.840935 m
533.133 31.840935 l
stroke
grestore
gsave
529.8 171.4 7.2 7.2 clipbox
85.116 29.308665 m
533.133 29.308665 l
stroke
grestore
0.733 0.545 1.000 setrgbcolor
gsave
529.8 171.4 7.2 7.2 clipbox
221.469 108.4908 m
221.469 147.4488 l
stroke
grestore
gsave
529.8 171.4 7.2 7.2 clipbox
260.427 69.5328 m
260.427 147.4488 l
stroke
grestore
gsave
529.8 171.4 7.2 7.2 clipbox
338.343 69.5328 m
338.343 108.4908 l
stroke
grestore
0.467 0.533 0.600 setrgbcolor
gsave
529.8 171.4 7.2 7.2 clipbox
417.525135 147.4488 m
417.525135 39.437745 l
stroke
grestore
gsave
529.8 171.4 7.2 7.2 clipbox
414.992865 147.4488 m
414.992865 39.437745 l
stroke
grestore
gsave
529.8 171.4 7.2 7.2 clipbox
456.483135 108.4908 m
456.483135 39.437745 l
stroke
grestore
gsave
529.8 171.4 7.2 7.2 clipbox
453.950865 108.4908 m
453.950865 39.437745 l
stroke
grestore
gsave
529.8 171.4 7.2 7.2 clipbox
495.441135 69.5328 m
495.441135 39.437745 l
stroke
grestore
gsave
529.8 171.4 7.2 7.2 clipbox
492.908865 69.5328 m
492.908865 39.437745 l
stroke
grestore
1.500 setlinewidth
gsave
529.8 171.4 7.2 7.2 clipbox
108.4908 26.679 m
112.3866 34.4706 l
stroke
grestore
gsave
529.8 171.4 7.2 7.2 clipbox
91.93365 134.78745 m
117.25635 134.78745 l
117.25635 160.11015 l
91.93365 160.11015 l
cl
0.435 0.643 1.000 setrgbcolor
fill
grestore
gsave
529.8 171.4 7.2 7.2 clipbox
91.93365 95.82945 m
117.25635 95.82945 l
117.25635 121.15215 l
91.93365 121.15215 l
cl
0.435 0.643 1.000 setrgbcolor
fill
grestore
gsave
529.8 171.4 7.2 7.2 clipbox
91.93365 56.87145 m
117.25635 56.87145 l
117.25635 82.19415 l
91.93365 82.19415 l
cl
0.435 0.643 1.000 setrgbcolor
fill
grestore
gsave
529.8 171.4 7.2 7.2 clipbox
130.89165 134.78745 m
156.21435 134.78745 l
156.21435 160.11015 l
130.89165 160.11015 l
cl
0.980 0.455 0.651 setrgbcolor
fill
grestore
gsave
529.8 171.4 7.2 7.2 clipbox
130.89165 95.82945 m
156.21435 95.82945 l
156.21435 121.15215 l
130.89165 121.15215 l
cl
0.980 0.455 0.651 setrgbcolor
fill
grestore
gsave
529.8 171.4 7.2 7.2 clipbox
130.89165 56.87145 m
156.21435 56.87145 l
156.21435 82.19415 l
130.89165 82.19415 l
cl
0.980 0.455 0.651 setrgbcolor
fill
grestore
gsave
529.8 171.4 7.2 7.2 clipbox
169.84965 134.78745 m
195.17235 134.78745 l
195.17235 160.11015 l
169.84965 160.11015 l
cl
0.435 0.643 1.000 setrgbcolor
fill
grestore
0 setlinejoin
0 setlinecap
[] 0 setdash
0.733 0.545 1.000 setrgbcolor
gsave
529.8 171.4 7.2 7.2 clipbox
221.469 104.692395 m
222.476349 104.692395 223.442575 105.092619 224.154878 105.804922 c
224.867181 106.517225 225.267405 107.483451 225.267405 108.4908 c
225.267405 109.498149 224.867181 110.464375 224.154878 111.176678 c
223.442575 111.888981 222.476349 112.289205 221.469 112.289205 c
220.461651 112.289205 219.495425 111.888981 218.783122 111.176678 c
218.070819 110.464375 217.670595 109.498149 217.670595 108.4908 c
217.670595 107.483451 218.070819 106.517225 218.783122 105.804922 c
219.495425 105.092619 220.461651 104.692395 221.469 104.692395 c
cl
gsave
fill
grestore
stroke
grestore
gsave
529.8 171.4 7.2 7.2 clipbox
208.80765 134.78745 m
234.13035 134.78745 l
234.13035 160.11015 l
208.80765 160.11015 l
cl
fill
grestore
gsave
529.8 171.4 7.2 7.2 clipbox
260.427 65.734395 m
261.434349 65.734395 262.400575 66.134619 263.112878 66.846922 c
263.825181 67.559225 264.225405 68.525451 264.225405 69.5328 c
264.225405 70.540149 263.825181 71.506375 263.112878 72.218678 c
262.400575 72.930981 261.434349 73.331205 260.427 73.331205 c
259.419651 73.331205 258.453425 72.930981 257.741122 72.218678 c
257.028819 71.506375 256.628595 70.540149 256.628595 69.5328 c
256.628595 68.525451 257.028819 67.559225 257.741122 66.846922 c
258.453425 66.134619 259.419651 65.734395 260.427 65.734395 c
cl
gsave
fill
grestore
stroke
grestore
gsave
529.8 171.4 7.2 7.2 clipbox
247.76565 134.78745 m
273.08835 134.78745 l
273.08835 160.11015 l
247.76565 160.11015 l
cl
fill
grestore
gsave
529.8 171.4 7.2 7.2 clipbox
286.72365 95.82945 m
312.04635 95.82945 l
312.04635 121.15215 l
286.72365 121.15215 l
cl
0.435 0.643 1.000 setrgbcolor
fill
grestore
gsave
529.8 171.4 7.2 7.2 clipbox
338.343 65.734395 m
339.350349 65.734395 340.316575 66.134619 341.028878 66.846922 c
341.741181 67.559225 342.141405 68.525451 342.141405 69.5328 c
342.141405 70.540149 341.741181 71.506375 341.028878 72.218678 c
340.316575 72.930981 339.350349 73.331205 338.343 73.331205 c
337.335651 73.331205 336.369425 72.930981 335.657122 72.218678 c
334.944819 71.506375 334.544595 70.540149 334.544595 69.5328 c
334.544595 68.525451 334.944819 67.559225 335.657122 66.846922 c
336.369425 66.134619 337.335651 65.734395 338.343 65.734395 c
cl
gsave
fill
grestore
stroke
grestore
gsave
529.8 171.4 7.2 7.2 clipbox
325.68165 95.82945 m
351.00435 95.82945 l
351.00435 121.15215 l
325.68165 121.15215 l
cl
fill
grestore
gsave
529.8 171.4 7.2 7.2 clipbox
364.63965 56.87145 m
389.96235 56.87145 l
389.96235 82.19415 l
364.63965 82.19415 l
cl
0.435 0.643 1.000 setrgbcolor
fill
grestore
gsave
529.8 171.4 7.2 7.2 clipbox
403.59765 134.78745 m
428.92035 134.78745 l
428.92035 160.11015 l
403.59765 160.11015 l
cl
0.000 setgray
fill
grestore
2.000 setlinewidth
1.000 setgray
gsave
529.8 171.4 7.2 7.2 clipbox
425.121945 143.650395 m
425.121945 146.000093 424.187536 148.255956 422.526049 149.917444 c
420.864561 151.578931 418.608698 152.51334 416.259 152.51334 c
413.909302 152.51334 411.653439 151.578931 409.991951 149.917444 c
408.330464 148.255956 407.396055 146.000093 407.396055 143.650395 c
stroke
grestore
gsave
529.8 171.4 7.2 7.2 clipbox
442.55565 95.82945 m
467.87835 95.82945 l
467.87835 121.15215 l
442.55565 121.15215 l
cl
0.000 setgray
fill
grestore
gsave
529.8 171.4 7.2 7.2 clipbox
464.079945 104.692395 m
464.079945 107.042093 463.145536 109.297956 461.484049 110.959444 c
459.822561 112.620931 457.566698 113.55534 455.217 113.55534 c
452.867302 113.55534 450.611439 112.620931 448.949951 110.959444 c
447.288464 109.297956 446.354055 107.042093 446.354055 104.692395 c
stroke
grestore
gsave
529.8 171.4 7.2 7.2 clipbox
481.51365 56.87145 m
506.83635 56.87145 l
506.83635 82.19415 l
481.51365 82.19415 l
cl
0.000 setgray
fill
grestore
gsave
529.8 171.4 7.2 7.2 clipbox
503.037945 65.734395 m
503.037945 68.084093 502.103536 70.339956 500.442049 72.001444 c
498.780561 73.662931 496.524698 74.59734 494.175 74.59734 c
491.825302 74.59734 489.569439 73.662931 487.907951 72.001444 c
486.246464 70.339956 485.312055 68.084093 485.312055 65.734395 c
stroke
grestore
1 setlinejoin
2 setlinecap
[] 0 setdash
gsave
529.8 171.4 7.2 7.2 clipbox
416.259 143.650395 m
425.121945 152.51334 l
stroke
grestore
gsave
529.8 171.4 7.2 7.2 clipbox
455.217 104.692395 m
464.079945 113.55534 l
stroke
grestore
gsave
529.8 171.4 7.2 7.2 clipbox
494.175 65.734395 m
503.037945 74.59734 l
stroke
grestore
0.000 setgray
gsave
99.595000 143.862862 translate
0.000000 rotate
/DejaVuSans-Oblique findfont
13.0 scalefont
setfont
0.000000 0.515625 moveto
/H glyphshow


grestore
gsave
99.595000 104.904862 translate
0.000000 rotate
/DejaVuSans-Oblique findfont
13.0 scalefont
setfont
0.000000 0.515625 moveto
/H glyphshow


grestore
gsave
99.595000 65.946862 translate
0.000000 rotate
/DejaVuSans-Oblique findfont
13.0 scalefont
setfont
0.000000 0.515625 moveto
/H glyphshow


grestore
gsave
135.553000 147.747205 translate
0.000000 rotate
/DejaVuSans-Oblique findfont
13.0 scalefont
setfont
0.000000 0.515625 moveto
/U glyphshow

/DejaVuSans findfont
9.1 scalefont
setfont
9.515137 -1.617188 moveto
/one glyphshow


grestore
gsave
134.553000 137.351990 translate
0.000000 rotate
/DejaVuSans findfont
8.0 scalefont
setfont
0.000000 0.921875 moveto
/parenleft glyphshow

3.121094 0.921875 moveto
/minus glyphshow

/DejaVuSans-Oblique findfont
8.0 scalefont
setfont
9.824219 0.921875 moveto
/pi glyphshow

/DejaVuSans findfont
8.0 scalefont
setfont
14.640625 0.921875 moveto
/parenright glyphshow


grestore
gsave
135.553000 108.789205 translate
0.000000 rotate
/DejaVuSans-Oblique findfont
13.0 scalefont
setfont
0.000000 0.515625 moveto
/U glyphshow

/DejaVuSans findfont
9.1 scalefont
setfont
9.515137 -1.617188 moveto
/one glyphshow


grestore
gsave
130.553000 98.393990 translate
0.000000 rotate
/DejaVuSans findfont
8.0 scalefont
setfont
0.000000 0.921875 moveto
/parenleft glyphshow

3.121094 0.921875 moveto
/minus glyphshow

/DejaVuSans-Oblique findfont
8.0 scalefont
setfont
9.824219 0.921875 moveto
/pi glyphshow

/DejaVuSans findfont
8.0 scalefont
setfont
14.640625 0.921875 moveto
/slash glyphshow

17.335938 0.921875 moveto
/two glyphshow

22.425781 0.921875 moveto
/parenright glyphshow


grestore
gsave
135.553000 69.831205 translate
0.000000 rotate
/DejaVuSans-Oblique findfont
13.0 scalefont
setfont
0.000000 0.515625 moveto
/U glyphshow

/DejaVuSans findfont
9.1 scalefont
setfont
9.515137 -1.617188 moveto
/one glyphshow


grestore
gsave
130.553000 59.435990 translate
0.000000 rotate
/DejaVuSans findfont
8.0 scalefont
setfont
0.000000 0.921875 moveto
/parenleft glyphshow

3.121094 0.921875 moveto
/minus glyphshow

/DejaVuSans-Oblique findfont
8.0 scalefont
setfont
9.824219 0.921875 moveto
/pi glyphshow

/DejaVuSans findfont
8.0 scalefont
setfont
14.640625 0.921875 moveto
/slash glyphshow

17.335938 0.921875 moveto
/four glyphshow

22.425781 0.921875 moveto
/parenright glyphshow


grestore
gsave
177.511000 143.862862 translate
0.000000 rotate
/DejaVuSans-Oblique findfont
13.0 scalefont
setfont
0.000000 0.515625 moveto
/H glyphshow


grestore
gsave
213.469000 147.747205 translate
0.000000 rotate
/DejaVuSans-Oblique findfont
13.0 scalefont
setfont
0.000000 0.515625 moveto
/U glyphshow

/DejaVuSans findfont
9.1 scalefont
setfont
9.515137 -1.617188 moveto
/one glyphshow


grestore
gsave
214.969000 137.648865 translate
0.000000 rotate
/DejaVuSans-Oblique findfont
8.0 scalefont
setfont
0.000000 0.062500 moveto
/pi glyphshow

/DejaVuSans findfont
8.0 scalefont
setfont
4.816406 0.062500 moveto
/slash glyphshow

7.511719 0.062500 moveto
/two glyphshow


grestore
gsave
252.427000 147.747205 translate
0.000000 rotate
/DejaVuSans-Oblique findfont
13.0 scalefont
setfont
0.000000 0.515625 moveto
/U glyphshow

/DejaVuSans findfont
9.1 scalefont
setfont
9.515137 -1.617188 moveto
/one glyphshow


grestore
gsave
253.927000 137.648865 translate
0.000000 rotate
/DejaVuSans-Oblique findfont
8.0 scalefont
setfont
0.000000 0.171875 moveto
/pi glyphshow

/DejaVuSans findfont
8.0 scalefont
setfont
4.816406 0.171875 moveto
/slash glyphshow

7.511719 0.171875 moveto
/four glyphshow


grestore
gsave
294.385000 104.904862 translate
0.000000 rotate
/DejaVuSans-Oblique findfont
13.0 scalefont
setfont
0.000000 0.515625 moveto
/H glyphshow


grestore
gsave
330.343000 108.789205 translate
0.000000 rotate
/DejaVuSans-Oblique findfont
13.0 scalefont
setfont
0.000000 0.515625 moveto
/U glyphshow

/DejaVuSans findfont
9.1 scalefont
setfont
9.515137 -1.617188 moveto
/one glyphshow


grestore
gsave
331.843000 98.690865 translate
0.000000 rotate
/DejaVuSans-Oblique findfont
8.0 scalefont
setfont
0.000000 0.062500 moveto
/pi glyphshow

/DejaVuSans findfont
8.0 scalefont
setfont
4.816406 0.062500 moveto
/slash glyphshow

7.511719 0.062500 moveto
/two glyphshow


grestore
gsave
372.301000 65.946862 translate
0.000000 rotate
/DejaVuSans-Oblique findfont
13.0 scalefont
setfont
0.000000 0.515625 moveto
/H glyphshow


grestore
/DejaVuSans findfont
10.400 scalefont
setfont
gsave
425.998500 36.626850 translate
0.000000 rotate
0.000000 0.000000 m /zero glyphshow
grestore
gsave
464.956500 36.626850 translate
0.000000 rotate
0.000000 0.000000 m /one glyphshow
grestore
gsave
503.914500 36.626850 translate
0.000000 rotate
0.000000 0.000000 m /two glyphshow
grestore
gsave
47.637000 142.964425 translate
0.000000 rotate
/DejaVuSans-Oblique findfont
16.25 scalefont
setfont
0.000000 0.109375 moveto
/x glyphshow

/DejaVuSans findfont
11.375 scalefont
setfont
9.616699 -2.557813 moveto
/zero glyphshow


grestore
gsave
47.637000 104.006425 translate
0.000000 rotate
/DejaVuSans-Oblique findfont
16.25 scalefont
setfont
0.000000 0.109375 moveto
/x glyphshow

/DejaVuSans findfont
11.375 scalefont
setfont
9.616699 -2.557813 moveto
/one glyphshow


grestore
gsave
47.637000 65.048425 translate
0.000000 rotate
/DejaVuSans-Oblique findfont
16.25 scalefont
setfont
0.000000 0.109375 moveto
/x glyphshow

/DejaVuSans findfont
11.375 scalefont
setfont
9.616699 -2.557813 moveto
/two glyphshow


grestore
gsave
104.595000 36.626850 translate
0.000000 rotate
0.000000 0.000000 m /three glyphshow
grestore
gsave
54.637000 25.199800 translate
0.000000 rotate
/DejaVuSans-Oblique findfont
19.5 scalefont
setfont
0.000000 0.078125 moveto
/c glyphshow


grestore

end
showpage
